EESchema Schematic File Version 4
LIBS:shippy-pcb-cache
EELAYER 30 0
EELAYER END
$Descr A 11000 8500
encoding utf-8
Sheet 3 8
Title "Shippy O'Shippian"
Date "2020-05-11"
Rev "1.6"
Comp "Author: Timothy A. Zimmerman"
Comment1 ""
Comment2 ""
Comment3 ""
Comment4 ""
$EndDescr
$Comp
L Device:D D201
U 1 1 5E888669
P 4400 3250
AR Path="/5E97AFFB/5E888669" Ref="D201"  Part="1" 
AR Path="/5E9911E4/5E888669" Ref="D401"  Part="1" 
F 0 "D401" H 4400 3150 50  0000 C CNN
F 1 "D" H 4400 3400 50  0000 C CNN
F 2 "" H 4400 3250 50  0001 C CNN
F 3 "~" H 4400 3250 50  0001 C CNN
	1    4400 3250
	-1   0    0    1   
$EndComp
Wire Wire Line
	3300 3250 4050 3250
Connection ~ 4050 3250
Wire Wire Line
	4050 3250 4250 3250
$Comp
L power:GND #PWR0101
U 1 1 5E89DDB7
P 3300 4000
AR Path="/5E97AFFB/5E89DDB7" Ref="#PWR0101"  Part="1" 
AR Path="/5E9911E4/5E89DDB7" Ref="#PWR0113"  Part="1" 
F 0 "#PWR0113" H 3300 3750 50  0001 C CNN
F 1 "GND" H 3305 3827 50  0000 C CNN
F 2 "" H 3300 4000 50  0001 C CNN
F 3 "" H 3300 4000 50  0001 C CNN
	1    3300 4000
	1    0    0    -1  
$EndComp
Wire Wire Line
	4050 3950 3300 3950
Connection ~ 3300 3950
Wire Wire Line
	3300 3950 3300 4000
Wire Wire Line
	6250 3250 7050 3250
Wire Wire Line
	6250 3850 6250 3250
Wire Wire Line
	5900 3850 6250 3850
Wire Wire Line
	5900 3950 6450 3950
$Comp
L shippy-pcb:74LVC1G384GW U201
U 1 1 5E8C52C3
P 5600 3950
AR Path="/5E97AFFB/5E8C52C3" Ref="U201"  Part="1" 
AR Path="/5E9911E4/5E8C52C3" Ref="U401"  Part="1" 
F 0 "U401" H 5600 4275 50  0000 C CNN
F 1 "74LVC1G384GW" H 5600 4184 50  0000 C CNN
F 2 "" H 5650 3900 50  0001 C CNN
F 3 "" H 5650 3900 50  0001 C CNN
	1    5600 3950
	1    0    0    -1  
$EndComp
$Comp
L power:GND #PWR0102
U 1 1 5E8BB7FB
P 7150 4800
AR Path="/5E97AFFB/5E8BB7FB" Ref="#PWR0102"  Part="1" 
AR Path="/5E9911E4/5E8BB7FB" Ref="#PWR0114"  Part="1" 
F 0 "#PWR0114" H 7150 4550 50  0001 C CNN
F 1 "GND" H 7155 4627 50  0000 C CNN
F 2 "" H 7150 4800 50  0001 C CNN
F 3 "" H 7150 4800 50  0001 C CNN
	1    7150 4800
	1    0    0    -1  
$EndComp
$Comp
L Device:R R201
U 1 1 5E876190
P 5950 4350
AR Path="/5E97AFFB/5E876190" Ref="R201"  Part="1" 
AR Path="/5E9911E4/5E876190" Ref="R401"  Part="1" 
F 0 "R401" H 5700 4400 50  0000 L CNN
F 1 "1k" H 5800 4300 50  0000 L CNN
F 2 "" V 5880 4350 50  0001 C CNN
F 3 "~" H 5950 4350 50  0001 C CNN
	1    5950 4350
	1    0    0    -1  
$EndComp
Connection ~ 7050 3250
Wire Wire Line
	7150 3250 7050 3250
Wire Wire Line
	7150 3550 7150 3250
Wire Wire Line
	7050 3250 7050 3550
$Comp
L shippy-pcb-rescue:MCP73833-AMI_UN-digikey_library U202
U 1 1 5E85014E
P 7050 3850
AR Path="/5E97AFFB/5E85014E" Ref="U202"  Part="1" 
AR Path="/5E9911E4/5E85014E" Ref="U402"  Part="1" 
AR Path="/5E85014E" Ref="U202"  Part="1" 
F 0 "U402" H 7300 4200 60  0000 C CNN
F 1 "MCP73833-AMI_UN" H 7600 4100 60  0000 C CNN
F 2 "digikey-footprints:MSOP-10_W3mm" H 7250 4050 60  0001 L CNN
F 3 "http://www.microchip.com/mymicrochip/filehandler.aspx?ddocname=en027983" H 7250 4150 60  0001 L CNN
F 4 "MCP73833-AMI/UN-ND" H 7250 4250 60  0001 L CNN "Digi-Key_PN"
F 5 "MCP73833-AMI/UN" H 7250 4350 60  0001 L CNN "MPN"
F 6 "Integrated Circuits (ICs)" H 7250 4450 60  0001 L CNN "Category"
F 7 "PMIC - Battery Chargers" H 7250 4550 60  0001 L CNN "Family"
F 8 "http://www.microchip.com/mymicrochip/filehandler.aspx?ddocname=en027983" H 7250 4650 60  0001 L CNN "DK_Datasheet_Link"
F 9 "/product-detail/en/microchip-technology/MCP73833-AMI-UN/MCP73833-AMI-UN-ND/1223157" H 7250 4750 60  0001 L CNN "DK_Detail_Page"
F 10 "IC LI-ION/LI-POLY CTRLR 10MSOP" H 7250 4850 60  0001 L CNN "Description"
F 11 "Microchip Technology" H 7250 4950 60  0001 L CNN "Manufacturer"
F 12 "Active" H 7250 5050 60  0001 L CNN "Status"
	1    7050 3850
	1    0    0    -1  
$EndComp
Connection ~ 6250 3250
Wire Wire Line
	7550 3850 7850 3850
Wire Wire Line
	7550 3950 7850 3950
Wire Wire Line
	7550 4050 7850 4050
Wire Wire Line
	7550 4150 7600 4150
Wire Wire Line
	7150 4750 7150 4800
Connection ~ 7150 4750
Wire Wire Line
	7800 4750 7150 4750
Connection ~ 7800 4750
Wire Wire Line
	8150 4750 7800 4750
Wire Wire Line
	7600 4150 7600 4250
Wire Wire Line
	7600 4250 7800 4250
Wire Wire Line
	7800 4250 8150 4250
Connection ~ 7800 4250
Connection ~ 7600 4250
Wire Wire Line
	7550 4250 7600 4250
Wire Wire Line
	4550 3250 4950 3250
Text HLabel 5150 3100 2    50   Input ~ 0
SOLAR_RAIL
Wire Wire Line
	5150 3100 4950 3100
Wire Wire Line
	4950 3100 4950 3250
Connection ~ 4950 3250
Wire Wire Line
	4950 3250 6250 3250
Text HLabel 5200 3950 0    50   Input ~ 0
~CHARGE_ENABLE
Text HLabel 7850 3850 2    50   Output ~ 0
STAT1
Text HLabel 7850 3950 2    50   Output ~ 0
STAT2
Text HLabel 7850 4050 2    50   Output ~ 0
~PG
$Comp
L Device:C_Small C202
U 1 1 5E8F2848
P 7800 4500
AR Path="/5E97AFFB/5E8F2848" Ref="C202"  Part="1" 
AR Path="/5E9911E4/5E8F2848" Ref="C402"  Part="1" 
F 0 "C402" H 7500 4550 50  0000 L CNN
F 1 "1u" H 7600 4450 50  0000 L CNN
F 2 "" H 7800 4500 50  0001 C CNN
F 3 "~" H 7800 4500 50  0001 C CNN
	1    7800 4500
	1    0    0    -1  
$EndComp
Wire Wire Line
	7800 4250 7800 4400
Wire Wire Line
	7800 4600 7800 4750
$Comp
L Device:C_Small C201
U 1 1 5E8F4329
P 4050 3650
AR Path="/5E97AFFB/5E8F4329" Ref="C201"  Part="1" 
AR Path="/5E9911E4/5E8F4329" Ref="C401"  Part="1" 
F 0 "C401" H 4150 3700 50  0000 L CNN
F 1 "1000u" H 4150 3600 50  0000 L CNN
F 2 "" H 4050 3650 50  0001 C CNN
F 3 "~" H 4050 3650 50  0001 C CNN
	1    4050 3650
	1    0    0    -1  
$EndComp
Wire Wire Line
	4050 3250 4050 3550
Wire Wire Line
	4050 3750 4050 3950
Text HLabel 8500 4250 2    50   Input ~ 0
BATT_OUT
Wire Wire Line
	8500 4250 8350 4250
Connection ~ 8150 4250
$Comp
L Connector:TestPoint TP203
U 1 1 5E8BD3BB
P 7150 3250
AR Path="/5E97AFFB/5E8BD3BB" Ref="TP203"  Part="1" 
AR Path="/5E9911E4/5E8BD3BB" Ref="TP403"  Part="1" 
F 0 "TP403" H 7200 3400 50  0000 L CNN
F 1 "TestPoint" H 7208 3277 50  0001 L CNN
F 2 "" H 7350 3250 50  0001 C CNN
F 3 "~" H 7350 3250 50  0001 C CNN
	1    7150 3250
	1    0    0    -1  
$EndComp
Connection ~ 7150 3250
Connection ~ 3300 3250
$Comp
L Connector:TestPoint TP201
U 1 1 5E8BD128
P 3300 3250
AR Path="/5E97AFFB/5E8BD128" Ref="TP201"  Part="1" 
AR Path="/5E9911E4/5E8BD128" Ref="TP401"  Part="1" 
F 0 "TP401" H 3358 3322 50  0000 L CNN
F 1 "TestPoint" H 3358 3277 50  0001 L CNN
F 2 "" H 3500 3250 50  0001 C CNN
F 3 "~" H 3500 3250 50  0001 C CNN
	1    3300 3250
	1    0    0    -1  
$EndComp
$Comp
L Connector:TestPoint TP204
U 1 1 5E8BF7B6
P 8350 4250
AR Path="/5E97AFFB/5E8BF7B6" Ref="TP204"  Part="1" 
AR Path="/5E9911E4/5E8BF7B6" Ref="TP404"  Part="1" 
F 0 "TP404" H 8400 4400 50  0000 L CNN
F 1 "TestPoint" H 8408 4277 50  0001 L CNN
F 2 "" H 8550 4250 50  0001 C CNN
F 3 "~" H 8550 4250 50  0001 C CNN
	1    8350 4250
	1    0    0    -1  
$EndComp
Connection ~ 8350 4250
Wire Wire Line
	8350 4250 8150 4250
$Comp
L Connector:TestPoint TP202
U 1 1 5E8BFBD0
P 6450 3950
AR Path="/5E97AFFB/5E8BFBD0" Ref="TP202"  Part="1" 
AR Path="/5E9911E4/5E8BFBD0" Ref="TP402"  Part="1" 
F 0 "TP402" H 6500 4100 50  0000 L CNN
F 1 "TestPoint" H 6508 3977 50  0001 L CNN
F 2 "" H 6650 3950 50  0001 C CNN
F 3 "~" H 6650 3950 50  0001 C CNN
	1    6450 3950
	1    0    0    -1  
$EndComp
Connection ~ 6450 3950
Wire Wire Line
	6450 3950 6750 3950
Text Notes 6300 6700 0    50   ~ 0
POWER REQS:\nU201: 4uA\nU202: 3mA CHARGING, 300uA IDLE
Wire Wire Line
	3300 3250 3300 3600
Wire Wire Line
	3300 3700 3300 3950
Text Notes 3200 3450 2    50   ~ 0
SOLAR PANEL\nPEAK: 6V@615mA (3.5W)
$Comp
L Connector_Generic:Conn_01x02 J201
U 1 1 5ED239E0
P 3100 3700
AR Path="/5E97AFFB/5ED239E0" Ref="J201"  Part="1" 
AR Path="/5E9911E4/5ED239E0" Ref="J401"  Part="1" 
F 0 "J401" H 3300 3600 50  0000 C CNN
F 1 "Conn_01x02" H 3400 3700 50  0000 C CNN
F 2 "" H 3100 3700 50  0001 C CNN
F 3 "~" H 3100 3700 50  0001 C CNN
	1    3100 3700
	-1   0    0    1   
$EndComp
$Comp
L Connector_Generic:Conn_01x02 J203
U 1 1 5ED25B26
P 8350 4450
AR Path="/5E97AFFB/5ED25B26" Ref="J203"  Part="1" 
AR Path="/5E9911E4/5ED25B26" Ref="J403"  Part="1" 
F 0 "J403" H 8550 4350 50  0000 C CNN
F 1 "Conn_01x02" H 8650 4450 50  0000 C CNN
F 2 "" H 8350 4450 50  0001 C CNN
F 3 "~" H 8350 4450 50  0001 C CNN
	1    8350 4450
	1    0    0    -1  
$EndComp
Text Notes 8300 4800 0    50   ~ 0
BATTERY\n3.7VDC 6Ah
Wire Wire Line
	8150 4250 8150 4450
Wire Wire Line
	8150 4550 8150 4750
Text Notes 8250 3900 0    50   ~ 0
DO WE NEED TO MONITOR THESE I/O?\nSTAT1: CHARGING\nSTAT2: CHARGE COMPLETE\n~PG~: VDD+0.15 > VBATT
Text Notes 7350 4950 0    50   ~ 0
INSTALL C202 CLOSE\nTO BATT CONNECTOR
Wire Wire Line
	7150 4450 7150 4750
Wire Wire Line
	5900 4050 5950 4050
$Comp
L Connector_Generic:Conn_01x02 J202
U 1 1 5EA19E8E
P 6450 4250
AR Path="/5E97AFFB/5EA19E8E" Ref="J202"  Part="1" 
AR Path="/5E9911E4/5EA19E8E" Ref="J402"  Part="1" 
F 0 "J402" H 6600 4200 50  0000 C CNN
F 1 "Conn_01x02" H 6800 4250 50  0001 C CNN
F 2 "" H 6450 4250 50  0001 C CNN
F 3 "~" H 6450 4250 50  0001 C CNN
	1    6450 4250
	-1   0    0    1   
$EndComp
$Comp
L power:GND #PWR0201
U 1 1 5EA1A526
P 6700 4300
AR Path="/5E97AFFB/5EA1A526" Ref="#PWR0201"  Part="1" 
AR Path="/5E9911E4/5EA1A526" Ref="#PWR0401"  Part="1" 
F 0 "#PWR0401" H 6700 4050 50  0001 C CNN
F 1 "GND" H 6705 4127 50  0000 C CNN
F 2 "" H 6700 4300 50  0001 C CNN
F 3 "" H 6700 4300 50  0001 C CNN
	1    6700 4300
	1    0    0    -1  
$EndComp
Wire Wire Line
	6650 4250 6700 4250
Wire Wire Line
	6700 4250 6700 4300
Text Notes 6150 4600 0    50   ~ 0
10k NTC THERMISTOR
Wire Wire Line
	5300 3950 5200 3950
Wire Wire Line
	5300 4050 5250 4050
Wire Wire Line
	5250 4050 5250 4750
Wire Wire Line
	5250 4750 5950 4750
Wire Wire Line
	5950 4200 5950 4050
Wire Wire Line
	5950 4500 5950 4750
Connection ~ 5950 4750
Wire Wire Line
	5950 4750 7150 4750
Wire Wire Line
	6650 4150 6700 4150
Wire Wire Line
	6700 4150 6700 4050
Wire Wire Line
	6700 4050 6750 4050
$EndSCHEMATC
