EESchema Schematic File Version 4
LIBS:shippy-pcb-cache
EELAYER 30 0
EELAYER END
$Descr A 11000 8500
encoding utf-8
Sheet 5 8
Title "Shippy O'Shippian"
Date "2020-05-11"
Rev "1.6"
Comp "Author: Timothy A. Zimmerman"
Comment1 ""
Comment2 ""
Comment3 ""
Comment4 ""
$EndDescr
$Comp
L power:VCC #PWR0605
U 1 1 5E928251
P 5350 1350
F 0 "#PWR0605" H 5350 1200 50  0001 C CNN
F 1 "VCC" H 5367 1523 50  0000 C CNN
F 2 "" H 5350 1350 50  0001 C CNN
F 3 "" H 5350 1350 50  0001 C CNN
	1    5350 1350
	1    0    0    -1  
$EndComp
Wire Wire Line
	5350 1550 5350 1450
Wire Wire Line
	5450 1550 5450 1450
Wire Wire Line
	5450 1450 5350 1450
Connection ~ 5350 1450
Wire Wire Line
	5350 1450 5350 1350
$Comp
L power:GND #PWR0606
U 1 1 5E929404
P 5350 3800
F 0 "#PWR0606" H 5350 3550 50  0001 C CNN
F 1 "GND" H 5355 3627 50  0000 C CNN
F 2 "" H 5350 3800 50  0001 C CNN
F 3 "" H 5350 3800 50  0001 C CNN
	1    5350 3800
	1    0    0    -1  
$EndComp
Wire Wire Line
	5350 3800 5350 3750
Wire Wire Line
	5450 3650 5450 3750
Wire Wire Line
	5450 3750 5350 3750
Connection ~ 5350 3750
Wire Wire Line
	5350 3750 5350 3650
$Comp
L shippy-pcb:PIC24F32KA302-I U601
U 1 1 5E8AFCAE
P 3600 3000
F 0 "U601" H 3300 4400 50  0000 C CNN
F 1 "PIC24F32KA302-I" H 3550 2400 50  0000 C CNN
F 2 "" H 3600 3000 50  0001 C CNN
F 3 "" H 3600 3000 50  0001 C CNN
	1    3600 3000
	1    0    0    -1  
$EndComp
$Comp
L Device:Crystal_Small Y602
U 1 1 5E8B2287
P 6000 3800
F 0 "Y602" H 5900 3900 50  0000 L CNN
F 1 "32.768k" H 5850 4000 50  0000 L CNN
F 2 "" H 6000 3800 50  0001 C CNN
F 3 "~" H 6000 3800 50  0001 C CNN
	1    6000 3800
	-1   0    0    1   
$EndComp
$Comp
L Device:R_Small R601
U 1 1 5E8B8AB9
P 1650 6750
F 0 "R601" H 1400 6800 50  0000 L CNN
F 1 "10k" H 1450 6700 50  0000 L CNN
F 2 "" H 1650 6750 50  0001 C CNN
F 3 "~" H 1650 6750 50  0001 C CNN
	1    1650 6750
	1    0    0    -1  
$EndComp
Text Label 2800 2100 0    50   ~ 0
~MCLR
Wire Wire Line
	3100 2100 2800 2100
$Comp
L Device:C_Small C601
U 1 1 5E8BF299
P 1650 7150
F 0 "C601" H 1742 7196 50  0000 L CNN
F 1 "0.1u" H 1742 7105 50  0000 L CNN
F 2 "" H 1650 7150 50  0001 C CNN
F 3 "~" H 1650 7150 50  0001 C CNN
	1    1650 7150
	1    0    0    -1  
$EndComp
Wire Wire Line
	1650 6650 1650 6600
$Comp
L power:GND #PWR0602
U 1 1 5E8C0DFF
P 1650 7450
F 0 "#PWR0602" H 1650 7200 50  0001 C CNN
F 1 "GND" H 1655 7277 50  0000 C CNN
F 2 "" H 1650 7450 50  0001 C CNN
F 3 "" H 1650 7450 50  0001 C CNN
	1    1650 7450
	1    0    0    -1  
$EndComp
$Comp
L power:VCC #PWR0601
U 1 1 5E8C1497
P 1650 6600
F 0 "#PWR0601" H 1650 6450 50  0001 C CNN
F 1 "VCC" H 1667 6773 50  0000 C CNN
F 2 "" H 1650 6600 50  0001 C CNN
F 3 "" H 1650 6600 50  0001 C CNN
	1    1650 6600
	1    0    0    -1  
$EndComp
Text Label 2600 6900 2    50   ~ 0
~MCLR
$Comp
L power:VCC #PWR0603
U 1 1 5E8C5182
P 4950 6650
F 0 "#PWR0603" H 4950 6500 50  0001 C CNN
F 1 "VCC" H 4967 6823 50  0000 C CNN
F 2 "" H 4950 6650 50  0001 C CNN
F 3 "" H 4950 6650 50  0001 C CNN
	1    4950 6650
	1    0    0    -1  
$EndComp
$Comp
L power:GND #PWR0604
U 1 1 5E8C534C
P 4950 7300
F 0 "#PWR0604" H 4950 7050 50  0001 C CNN
F 1 "GND" H 4955 7127 50  0000 C CNN
F 2 "" H 4950 7300 50  0001 C CNN
F 3 "" H 4950 7300 50  0001 C CNN
	1    4950 7300
	1    0    0    -1  
$EndComp
$Comp
L Device:C_Small C602
U 1 1 5E8C6344
P 4450 7000
F 0 "C602" H 4542 7046 50  0000 L CNN
F 1 "1u" H 4542 6955 50  0000 L CNN
F 2 "" H 4450 7000 50  0001 C CNN
F 3 "~" H 4450 7000 50  0001 C CNN
	1    4450 7000
	1    0    0    -1  
$EndComp
$Comp
L Device:C_Small C603
U 1 1 5E8C84A3
P 4850 7000
F 0 "C603" H 4942 7046 50  0000 L CNN
F 1 "0.1u" H 4942 6955 50  0000 L CNN
F 2 "" H 4850 7000 50  0001 C CNN
F 3 "~" H 4850 7000 50  0001 C CNN
	1    4850 7000
	1    0    0    -1  
$EndComp
Wire Wire Line
	4850 7150 4850 7100
Wire Wire Line
	4850 6900 4850 6850
Wire Wire Line
	4850 6850 4650 6850
Wire Wire Line
	4450 6900 4450 6850
Wire Wire Line
	4450 7100 4450 7150
Wire Wire Line
	1650 6850 1650 6900
$Comp
L Device:R_Small R602
U 1 1 5E8CD744
P 1900 6900
F 0 "R602" H 1650 6850 50  0000 L CNN
F 1 "1k" H 1700 6950 50  0000 L CNN
F 2 "" H 1900 6900 50  0001 C CNN
F 3 "~" H 1900 6900 50  0001 C CNN
	1    1900 6900
	0    1    1    0   
$EndComp
Wire Wire Line
	1800 6900 1650 6900
Connection ~ 1650 6900
Wire Wire Line
	1650 6900 1650 7050
$Comp
L Switch:SW_Push SW601
U 1 1 5E8D15C8
P 2250 7150
F 0 "SW601" V 2250 7300 50  0000 L CNN
F 1 "SW_Push" V 2300 6800 50  0001 L CNN
F 2 "" H 2250 7350 50  0001 C CNN
F 3 "~" H 2250 7350 50  0001 C CNN
	1    2250 7150
	0    1    1    0   
$EndComp
Wire Notes Line
	500  6000 6250 6000
Wire Notes Line
	3450 6000 3450 8000
Text Notes 2850 6150 0    50   ~ 0
MICRO RESET
Text Notes 3550 6150 0    50   ~ 0
DECOUPLING CAPS
Text HLabel 8000 3100 2    50   Input ~ 0
UART1_TX
Text HLabel 3050 2600 0    50   Input ~ 0
UART1_RX
Wire Wire Line
	3050 2600 3100 2600
Wire Wire Line
	8000 3100 7950 3100
Text HLabel 3050 2400 0    50   Input ~ 0
UART2_TX
Text HLabel 3050 2500 0    50   Input ~ 0
UART2_RX
Wire Wire Line
	3050 2400 3100 2400
Wire Wire Line
	3050 2500 3100 2500
Text HLabel 8000 3000 2    50   Input ~ 0
I2C1_SCL
Text HLabel 8000 2900 2    50   Input ~ 0
I2C1_SDA
Wire Wire Line
	7950 2900 8000 2900
Wire Wire Line
	8000 3000 7950 3000
$Comp
L Device:R_Small R603
U 1 1 5E902AF7
P 7100 6100
F 0 "R603" H 6850 6150 50  0000 L CNN
F 1 "10k" H 6900 6050 50  0000 L CNN
F 2 "" H 7100 6100 50  0001 C CNN
F 3 "~" H 7100 6100 50  0001 C CNN
	1    7100 6100
	1    0    0    -1  
$EndComp
$Comp
L power:VCC #PWR0607
U 1 1 5E902E08
P 7100 5900
F 0 "#PWR0607" H 7100 5750 50  0001 C CNN
F 1 "VCC" H 7117 6073 50  0000 C CNN
F 2 "" H 7100 5900 50  0001 C CNN
F 3 "" H 7100 5900 50  0001 C CNN
	1    7100 5900
	1    0    0    -1  
$EndComp
$Comp
L Device:R_Small R604
U 1 1 5E903596
P 7400 6100
F 0 "R604" H 7450 6150 50  0000 L CNN
F 1 "10k" H 7450 6050 50  0000 L CNN
F 2 "" H 7400 6100 50  0001 C CNN
F 3 "~" H 7400 6100 50  0001 C CNN
	1    7400 6100
	1    0    0    -1  
$EndComp
Wire Wire Line
	7100 5900 7100 5950
Wire Wire Line
	7400 6000 7400 5950
Wire Wire Line
	7400 5950 7100 5950
Connection ~ 7100 5950
Wire Wire Line
	7100 5950 7100 6000
Text HLabel 7550 6250 2    50   Input ~ 0
I2C1_SDA
Text HLabel 7550 6350 2    50   Input ~ 0
I2C1_SCL
Wire Wire Line
	7400 6200 7400 6250
Wire Wire Line
	7400 6250 7550 6250
Wire Wire Line
	7100 6200 7100 6350
Wire Wire Line
	7100 6350 7550 6350
Wire Notes Line
	8250 5450 8250 6750
Wire Notes Line
	6250 5450 6250 6750
Text Notes 7700 5600 0    50   ~ 0
I2C PULLUPS\n
Text Notes 1800 5350 0    50   ~ 0
NOTE: BAND GAP VOLTAGE: 1.024V TYP.
Text HLabel 8000 2700 2    50   Input ~ 0
M1_PWM
Wire Wire Line
	8000 2700 7950 2700
Text HLabel 8000 2500 2    50   Input ~ 0
M2_PWM
Wire Wire Line
	8000 2500 7950 2500
Text Label 8800 3200 2    50   ~ 0
ICSP_CLK
Text Label 8800 3300 2    50   ~ 0
ICSP_DATA
$Comp
L Connector_Generic:Conn_01x05 J601
U 1 1 5E959460
P 9550 6150
F 0 "J601" H 9630 6192 50  0000 L CNN
F 1 "Conn_01x05" H 9630 6101 50  0000 L CNN
F 2 "" H 9550 6150 50  0001 C CNN
F 3 "~" H 9550 6150 50  0001 C CNN
	1    9550 6150
	1    0    0    -1  
$EndComp
Text Notes 9750 5600 0    50   ~ 0
ICSP HEADER
Wire Notes Line
	6250 5450 10500 5450
Text Label 9100 5950 0    50   ~ 0
~MCLR
Wire Wire Line
	9100 5950 9350 5950
$Comp
L power:VCC #PWR0608
U 1 1 5E967C94
P 8850 5900
F 0 "#PWR0608" H 8850 5750 50  0001 C CNN
F 1 "VCC" H 8867 6073 50  0000 C CNN
F 2 "" H 8850 5900 50  0001 C CNN
F 3 "" H 8850 5900 50  0001 C CNN
	1    8850 5900
	1    0    0    -1  
$EndComp
$Comp
L power:GND #PWR0609
U 1 1 5E96819E
P 8850 6450
F 0 "#PWR0609" H 8850 6200 50  0001 C CNN
F 1 "GND" H 8855 6277 50  0000 C CNN
F 2 "" H 8850 6450 50  0001 C CNN
F 3 "" H 8850 6450 50  0001 C CNN
	1    8850 6450
	1    0    0    -1  
$EndComp
Wire Wire Line
	8850 6450 8850 6150
Wire Wire Line
	8850 6150 9350 6150
Wire Wire Line
	9350 6050 8850 6050
Wire Wire Line
	8850 6050 8850 5900
Text Label 8900 6350 0    50   ~ 0
ICSP_CLK
Text Label 8900 6250 0    50   ~ 0
ICSP_DATA
Wire Wire Line
	8900 6250 9350 6250
Wire Wire Line
	8900 6350 9350 6350
Text HLabel 8000 2600 2    50   Input ~ 0
CHGPUMP_PWM
Wire Wire Line
	7950 2600 8000 2600
$Comp
L Device:Jumper_NO_Small JP603
U 1 1 5ED36BB4
P 8250 3650
F 0 "JP603" H 8250 3550 50  0000 C CNN
F 1 "Jumper_NO_Small" H 8250 3450 50  0001 C CNN
F 2 "" H 8250 3650 50  0001 C CNN
F 3 "~" H 8250 3650 50  0001 C CNN
	1    8250 3650
	1    0    0    -1  
$EndComp
$Comp
L Device:Jumper_NO_Small JP602
U 1 1 5ED366D6
P 8250 3550
F 0 "JP602" H 8250 3650 50  0000 C CNN
F 1 "Jumper_NO_Small" H 8250 3650 50  0001 C CNN
F 2 "" H 8250 3550 50  0001 C CNN
F 3 "~" H 8250 3550 50  0001 C CNN
	1    8250 3550
	1    0    0    -1  
$EndComp
Wire Wire Line
	7950 3200 8100 3200
Wire Wire Line
	8800 3300 8050 3300
Wire Wire Line
	8150 3550 8100 3550
Wire Wire Line
	8100 3550 8100 3200
Connection ~ 8100 3200
Wire Wire Line
	8100 3200 8800 3200
Wire Wire Line
	8150 3650 8050 3650
Wire Wire Line
	8050 3650 8050 3300
Connection ~ 8050 3300
Wire Wire Line
	8050 3300 7950 3300
Wire Wire Line
	2250 6900 2250 6950
Wire Wire Line
	2250 6900 2600 6900
Wire Wire Line
	2250 7350 2250 7400
$Comp
L Device:C_Small C606
U 1 1 5ED79D71
P 5750 4200
F 0 "C606" H 5842 4246 50  0000 L CNN
F 1 "12.5p" H 5842 4155 50  0000 L CNN
F 2 "" H 5750 4200 50  0001 C CNN
F 3 "~" H 5750 4200 50  0001 C CNN
	1    5750 4200
	1    0    0    -1  
$EndComp
$Comp
L Device:C_Small C607
U 1 1 5ED7A113
P 6200 4200
F 0 "C607" H 6292 4246 50  0000 L CNN
F 1 "12.5p" H 6292 4155 50  0000 L CNN
F 2 "" H 6200 4200 50  0001 C CNN
F 3 "~" H 6200 4200 50  0001 C CNN
	1    6200 4200
	1    0    0    -1  
$EndComp
Wire Wire Line
	5950 3650 5950 3700
Wire Wire Line
	5950 3700 5900 3700
Wire Wire Line
	5900 3700 5900 3800
Wire Wire Line
	6050 3650 6050 3700
Wire Wire Line
	6050 3700 6100 3700
Wire Wire Line
	6100 3700 6100 3800
Wire Wire Line
	6100 3800 6200 3800
Wire Wire Line
	6200 3800 6200 4100
Connection ~ 6100 3800
Wire Wire Line
	5900 3800 5750 3800
Wire Wire Line
	5750 3800 5750 4100
Connection ~ 5900 3800
$Comp
L power:GND #PWR0611
U 1 1 5ED8079F
P 6000 4400
F 0 "#PWR0611" H 6000 4150 50  0001 C CNN
F 1 "GND" H 6005 4227 50  0000 C CNN
F 2 "" H 6000 4400 50  0001 C CNN
F 3 "" H 6000 4400 50  0001 C CNN
	1    6000 4400
	1    0    0    -1  
$EndComp
Wire Wire Line
	5750 4300 5750 4350
Wire Wire Line
	5750 4350 6000 4350
Wire Wire Line
	6000 4350 6000 4400
Wire Wire Line
	6200 4300 6200 4350
Wire Wire Line
	6200 4350 6000 4350
Connection ~ 6000 4350
$Comp
L Device:Crystal_Small Y601
U 1 1 5ED87BE4
P 4900 3800
F 0 "Y601" H 4800 3900 50  0000 L CNN
F 1 "8M" H 4850 4000 50  0000 L CNN
F 2 "" H 4900 3800 50  0001 C CNN
F 3 "~" H 4900 3800 50  0001 C CNN
	1    4900 3800
	-1   0    0    1   
$EndComp
$Comp
L Device:C_Small C604
U 1 1 5ED87BEE
P 4650 4200
F 0 "C604" H 4742 4246 50  0000 L CNN
F 1 "12.5p" H 4742 4155 50  0000 L CNN
F 2 "" H 4650 4200 50  0001 C CNN
F 3 "~" H 4650 4200 50  0001 C CNN
	1    4650 4200
	1    0    0    -1  
$EndComp
$Comp
L Device:C_Small C605
U 1 1 5ED87BF8
P 5100 4200
F 0 "C605" H 5192 4246 50  0000 L CNN
F 1 "12.5p" H 5192 4155 50  0000 L CNN
F 2 "" H 5100 4200 50  0001 C CNN
F 3 "~" H 5100 4200 50  0001 C CNN
	1    5100 4200
	1    0    0    -1  
$EndComp
Wire Wire Line
	4800 3700 4800 3800
Wire Wire Line
	5000 3700 5000 3800
Wire Wire Line
	5000 3800 5100 3800
Wire Wire Line
	5100 3800 5100 4100
Connection ~ 5000 3800
Wire Wire Line
	4800 3800 4650 3800
Wire Wire Line
	4650 3800 4650 4100
Connection ~ 4800 3800
$Comp
L power:GND #PWR0610
U 1 1 5ED87C0A
P 4900 4400
F 0 "#PWR0610" H 4900 4150 50  0001 C CNN
F 1 "GND" H 4905 4227 50  0000 C CNN
F 2 "" H 4900 4400 50  0001 C CNN
F 3 "" H 4900 4400 50  0001 C CNN
	1    4900 4400
	1    0    0    -1  
$EndComp
Wire Wire Line
	4650 4300 4650 4350
Wire Wire Line
	4650 4350 4900 4350
Wire Wire Line
	4900 4350 4900 4400
Wire Wire Line
	5100 4300 5100 4350
Wire Wire Line
	5100 4350 4900 4350
Connection ~ 4900 4350
Wire Wire Line
	4800 3700 4850 3700
Wire Wire Line
	4850 3700 4850 3650
Wire Wire Line
	5000 3700 4950 3700
Wire Wire Line
	4950 3700 4950 3650
Text Notes 7800 3900 0    50   ~ 0
REMOVE FOR PROGRAMMING
Text Notes 9400 5350 0    50   ~ 0
POWER REQS (TYP.):\nMICRO = 410uA @ 1MHz\n          800uA @ 2MHz\n          3.4mA @ 8MHz
Text HLabel 8000 2800 2    50   Input ~ 0
PWR_FET_EN
Wire Wire Line
	8000 2800 7950 2800
Wire Wire Line
	1650 7250 1650 7400
Wire Wire Line
	2000 6900 2250 6900
Connection ~ 2250 6900
Wire Wire Line
	2250 7400 1650 7400
Connection ~ 1650 7400
Wire Wire Line
	1650 7400 1650 7450
Text Notes 1250 7550 1    50   ~ 0
C601 MAY CAUSE PROBLEMS\nWITH ICSP PROGRAMMER.
$Comp
L Device:C_Small C608
U 1 1 5EAD651C
P 5350 7000
F 0 "C608" H 5442 7046 50  0000 L CNN
F 1 "0.1u" H 5442 6955 50  0000 L CNN
F 2 "" H 5350 7000 50  0001 C CNN
F 3 "~" H 5350 7000 50  0001 C CNN
	1    5350 7000
	1    0    0    -1  
$EndComp
Wire Wire Line
	4950 6650 4950 6750
Wire Wire Line
	4950 6750 4650 6750
Wire Wire Line
	4650 6750 4650 6850
Connection ~ 4650 6850
Wire Wire Line
	4650 6850 4450 6850
Wire Wire Line
	4950 6750 5350 6750
Wire Wire Line
	5350 6750 5350 6900
Connection ~ 4950 6750
Wire Wire Line
	4450 7150 4650 7150
Wire Wire Line
	4950 7300 4950 7250
Wire Wire Line
	4950 7250 4650 7250
Wire Wire Line
	4650 7250 4650 7150
Connection ~ 4650 7150
Wire Wire Line
	4650 7150 4850 7150
Wire Wire Line
	4950 7250 5350 7250
Wire Wire Line
	5350 7250 5350 7100
Connection ~ 4950 7250
Text Notes 4300 6800 0    50   ~ 0
PIN 13
Text Notes 4350 7250 0    50   ~ 0
PIN 8
Text Notes 5400 6800 0    50   ~ 0
PIN 28
Text Notes 5400 7250 0    50   ~ 0
PIN 27
$EndSCHEMATC
