EESchema Schematic File Version 4
LIBS:shippy-pcb-cache
EELAYER 30 0
EELAYER END
$Descr A4 11693 8268
encoding utf-8
Sheet 8 8
Title "Shippy O'Shippian"
Date "2020-05-11"
Rev "1.6"
Comp "Author: Timothy A. Zimmerman"
Comment1 ""
Comment2 ""
Comment3 ""
Comment4 ""
$EndDescr
$Comp
L Motor:Motor_DC M?
U 1 1 5EB41F5C
P 1650 1600
AR Path="/5E92AC33/5EB41F5C" Ref="M?"  Part="1" 
AR Path="/5EB2B389/5EB41F5C" Ref="M801"  Part="1" 
F 0 "M801" H 1808 1596 50  0000 L CNN
F 1 "Motor_DC" H 1808 1505 50  0000 L CNN
F 2 "" H 1650 1510 50  0001 C CNN
F 3 "~" H 1650 1510 50  0001 C CNN
	1    1650 1600
	1    0    0    -1  
$EndComp
$Comp
L Device:Q_NMOS_GDS Q?
U 1 1 5EB41F62
P 1550 2200
AR Path="/5E92AC33/5EB41F62" Ref="Q?"  Part="1" 
AR Path="/5EB2B389/5EB41F62" Ref="Q801"  Part="1" 
F 0 "Q801" H 1754 2246 50  0000 L CNN
F 1 "Q_NMOS_GDS" H 1754 2155 50  0000 L CNN
F 2 "" H 1750 2300 50  0001 C CNN
F 3 "~" H 1550 2200 50  0001 C CNN
	1    1550 2200
	1    0    0    -1  
$EndComp
$Comp
L power:GND #PWR?
U 1 1 5EB41F68
P 1650 2500
AR Path="/5E92AC33/5EB41F68" Ref="#PWR?"  Part="1" 
AR Path="/5EB2B389/5EB41F68" Ref="#PWR0801"  Part="1" 
F 0 "#PWR0801" H 1650 2250 50  0001 C CNN
F 1 "GND" H 1655 2327 50  0000 C CNN
F 2 "" H 1650 2500 50  0001 C CNN
F 3 "" H 1650 2500 50  0001 C CNN
	1    1650 2500
	1    0    0    -1  
$EndComp
Wire Wire Line
	1650 2400 1650 2500
Wire Wire Line
	1650 1900 1650 2000
Wire Wire Line
	1350 2200 1300 2200
Text Notes 1550 3050 0    50   ~ 0
100n CAPACITORS FROM +/- TO MOTOR CAN
$Comp
L Motor:Motor_DC M?
U 1 1 5EB41F72
P 3150 1600
AR Path="/5E92AC33/5EB41F72" Ref="M?"  Part="1" 
AR Path="/5EB2B389/5EB41F72" Ref="M802"  Part="1" 
F 0 "M802" H 3308 1596 50  0000 L CNN
F 1 "Motor_DC" H 3308 1505 50  0000 L CNN
F 2 "" H 3150 1510 50  0001 C CNN
F 3 "~" H 3150 1510 50  0001 C CNN
	1    3150 1600
	1    0    0    -1  
$EndComp
$Comp
L Device:Q_NMOS_GDS Q?
U 1 1 5EB41F78
P 3050 2200
AR Path="/5E92AC33/5EB41F78" Ref="Q?"  Part="1" 
AR Path="/5EB2B389/5EB41F78" Ref="Q802"  Part="1" 
F 0 "Q802" H 3254 2246 50  0000 L CNN
F 1 "Q_NMOS_GDS" H 3254 2155 50  0000 L CNN
F 2 "" H 3250 2300 50  0001 C CNN
F 3 "~" H 3050 2200 50  0001 C CNN
	1    3050 2200
	1    0    0    -1  
$EndComp
$Comp
L power:GND #PWR?
U 1 1 5EB41F7E
P 3150 2500
AR Path="/5E92AC33/5EB41F7E" Ref="#PWR?"  Part="1" 
AR Path="/5EB2B389/5EB41F7E" Ref="#PWR0802"  Part="1" 
F 0 "#PWR0802" H 3150 2250 50  0001 C CNN
F 1 "GND" H 3155 2327 50  0000 C CNN
F 2 "" H 3150 2500 50  0001 C CNN
F 3 "" H 3150 2500 50  0001 C CNN
	1    3150 2500
	1    0    0    -1  
$EndComp
Wire Wire Line
	3150 2400 3150 2500
Wire Wire Line
	3150 1900 3150 2000
Wire Wire Line
	2850 2200 2800 2200
Text Notes 3950 850  0    50   ~ 0
MOTORS
Text HLabel 2800 2200 0    50   Input ~ 0
M2_PWM
Text HLabel 1300 2200 0    50   Input ~ 0
M1_PWM
Text HLabel 1600 1250 0    50   Input ~ 0
HIGHPWR_RAIL
Text HLabel 3100 1250 0    50   Input ~ 0
HIGHPWR_RAIL
Wire Wire Line
	3100 1250 3150 1250
Wire Wire Line
	3150 1250 3150 1400
Wire Wire Line
	1600 1250 1650 1250
Wire Wire Line
	1650 1250 1650 1400
Text Notes 1300 1050 0    50   ~ 0
THERE IS A POTENTIAL THAT A MOTOR SHORTED TO\nWATER WOULD TAKE DOWN THE HIGHPWR_RAIL...
$Comp
L Motor:Motor_DC M?
U 1 1 5ECB2A27
P 8050 2650
AR Path="/5E92AC33/5ECB2A27" Ref="M?"  Part="1" 
AR Path="/5EB2B389/5ECB2A27" Ref="M803"  Part="1" 
F 0 "M803" V 8250 2550 50  0000 L CNN
F 1 "Motor_DC" V 7850 2400 50  0000 L CNN
F 2 "" H 8050 2560 50  0001 C CNN
F 3 "~" H 8050 2560 50  0001 C CNN
	1    8050 2650
	0    -1   -1   0   
$EndComp
$Comp
L Device:Q_NMOS_GDS Q?
U 1 1 5ECB2A2D
P 7350 2150
AR Path="/5E92AC33/5ECB2A2D" Ref="Q?"  Part="1" 
AR Path="/5EB2B389/5ECB2A2D" Ref="Q803"  Part="1" 
F 0 "Q803" H 7554 2196 50  0000 L CNN
F 1 "Q_NMOS_GDS" H 7554 2105 50  0000 L CNN
F 2 "" H 7550 2250 50  0001 C CNN
F 3 "~" H 7350 2150 50  0001 C CNN
	1    7350 2150
	1    0    0    -1  
$EndComp
$Comp
L power:GND #PWR?
U 1 1 5ECB2A33
P 8100 3650
AR Path="/5E92AC33/5ECB2A33" Ref="#PWR?"  Part="1" 
AR Path="/5EB2B389/5ECB2A33" Ref="#PWR0803"  Part="1" 
F 0 "#PWR0803" H 8100 3400 50  0001 C CNN
F 1 "GND" H 8105 3477 50  0000 C CNN
F 2 "" H 8100 3650 50  0001 C CNN
F 3 "" H 8100 3650 50  0001 C CNN
	1    8100 3650
	1    0    0    -1  
$EndComp
Text HLabel 8000 1650 0    50   Input ~ 0
HIGHPWR_RAIL
$Comp
L Device:Q_NMOS_GDS Q?
U 1 1 5ECB6E6D
P 8850 2150
AR Path="/5E92AC33/5ECB6E6D" Ref="Q?"  Part="1" 
AR Path="/5EB2B389/5ECB6E6D" Ref="Q805"  Part="1" 
F 0 "Q805" H 9054 2196 50  0000 L CNN
F 1 "Q_NMOS_GDS" H 9054 2105 50  0000 L CNN
F 2 "" H 9050 2250 50  0001 C CNN
F 3 "~" H 8850 2150 50  0001 C CNN
	1    8850 2150
	-1   0    0    -1  
$EndComp
$Comp
L Device:Q_NMOS_GDS Q?
U 1 1 5ECBBA32
P 7350 3200
AR Path="/5E92AC33/5ECBBA32" Ref="Q?"  Part="1" 
AR Path="/5EB2B389/5ECBBA32" Ref="Q804"  Part="1" 
F 0 "Q804" H 7554 3246 50  0000 L CNN
F 1 "Q_NMOS_GDS" H 7554 3155 50  0000 L CNN
F 2 "" H 7550 3300 50  0001 C CNN
F 3 "~" H 7350 3200 50  0001 C CNN
	1    7350 3200
	1    0    0    -1  
$EndComp
$Comp
L Device:Q_NMOS_GDS Q?
U 1 1 5ECBBA38
P 8850 3200
AR Path="/5E92AC33/5ECBBA38" Ref="Q?"  Part="1" 
AR Path="/5EB2B389/5ECBBA38" Ref="Q806"  Part="1" 
F 0 "Q806" H 9054 3246 50  0000 L CNN
F 1 "Q_NMOS_GDS" H 9054 3155 50  0000 L CNN
F 2 "" H 9050 3300 50  0001 C CNN
F 3 "~" H 8850 3200 50  0001 C CNN
	1    8850 3200
	-1   0    0    -1  
$EndComp
Wire Wire Line
	7450 2350 7450 2650
Wire Wire Line
	8750 2350 8750 2650
Wire Wire Line
	8350 2650 8750 2650
Connection ~ 8750 2650
Wire Wire Line
	8750 2650 8750 3000
Wire Wire Line
	7850 2650 7450 2650
Connection ~ 7450 2650
Wire Wire Line
	7450 2650 7450 3000
Wire Wire Line
	7450 1950 7450 1750
Wire Wire Line
	7450 1750 8100 1750
Wire Wire Line
	8750 1750 8750 1950
Wire Wire Line
	7450 3400 7450 3600
Wire Wire Line
	7450 3600 8100 3600
Wire Wire Line
	8750 3600 8750 3400
Wire Wire Line
	8100 3650 8100 3600
Connection ~ 8100 3600
Wire Wire Line
	8100 3600 8750 3600
Wire Wire Line
	8000 1650 8100 1650
Wire Wire Line
	8100 1650 8100 1750
Connection ~ 8100 1750
Wire Wire Line
	8100 1750 8750 1750
$EndSCHEMATC
