EESchema Schematic File Version 4
LIBS:shippy-pcb-cache
EELAYER 30 0
EELAYER END
$Descr A 11000 8500
encoding utf-8
Sheet 7 8
Title "Shippy O'Shippian"
Date "2020-05-11"
Rev "1.6"
Comp "Author: Timothy A. Zimmerman"
Comment1 ""
Comment2 ""
Comment3 ""
Comment4 ""
$EndDescr
$Comp
L shippy-pcb:74HC4066 U717
U 1 1 5E97C495
P 9200 1400
F 0 "U717" H 9175 1975 50  0000 C CNN
F 1 "74HC4066" H 9175 1884 50  0000 C CNN
F 2 "" H 9200 1400 50  0001 C CNN
F 3 "" H 9200 1400 50  0001 C CNN
	1    9200 1400
	1    0    0    -1  
$EndComp
$Comp
L power:GND #PWR0103
U 1 1 5E97CF1F
P 8750 1750
F 0 "#PWR0103" H 8750 1500 50  0001 C CNN
F 1 "GND" H 8755 1577 50  0000 C CNN
F 2 "" H 8750 1750 50  0001 C CNN
F 3 "" H 8750 1750 50  0001 C CNN
	1    8750 1750
	1    0    0    -1  
$EndComp
$Comp
L power:VCC #PWR0104
U 1 1 5E97D2C7
P 9850 1000
F 0 "#PWR0104" H 9850 850 50  0001 C CNN
F 1 "VCC" H 9867 1173 50  0000 C CNN
F 2 "" H 9850 1000 50  0001 C CNN
F 3 "" H 9850 1000 50  0001 C CNN
	1    9850 1000
	1    0    0    -1  
$EndComp
Wire Wire Line
	9850 1000 9850 1050
Wire Wire Line
	9850 1050 9500 1050
Wire Wire Line
	8750 1650 8850 1650
Wire Wire Line
	8750 1650 8750 1750
Wire Wire Line
	8650 1150 8850 1150
Text HLabel 8650 1250 0    50   Input ~ 0
SOLAR_TIE_EN
Text HLabel 8650 1150 0    50   Output ~ 0
SOLAR_TIE_FET
Wire Wire Line
	8850 1550 8650 1550
Wire Wire Line
	8300 1450 8850 1450
Wire Wire Line
	8850 1250 8650 1250
$Comp
L Device:D D701
U 1 1 5E9B3EA4
P 2550 1850
F 0 "D701" H 2550 1650 50  0000 C CNN
F 1 "D" H 2550 1725 50  0000 C CNN
F 2 "" H 2550 1850 50  0001 C CNN
F 3 "~" H 2550 1850 50  0001 C CNN
	1    2550 1850
	-1   0    0    1   
$EndComp
$Comp
L Device:D D702
U 1 1 5E9B4216
P 2550 2000
F 0 "D702" H 2550 2200 50  0000 C CNN
F 1 "D" H 2550 2100 50  0000 C CNN
F 2 "" H 2550 2000 50  0001 C CNN
F 3 "~" H 2550 2000 50  0001 C CNN
	1    2550 2000
	-1   0    0    1   
$EndComp
$Comp
L Device:Q_NMOS_GDS Q701
U 1 1 5E9B5082
P 3250 1950
F 0 "Q701" V 3592 1950 50  0000 C CNN
F 1 "Q_NMOS_GDS" V 3501 1950 50  0000 C CNN
F 2 "" H 3450 2050 50  0001 C CNN
F 3 "~" H 3250 1950 50  0001 C CNN
	1    3250 1950
	0    1    -1   0   
$EndComp
Wire Wire Line
	2950 2000 2950 1850
Connection ~ 2950 1850
Wire Wire Line
	2950 1850 3050 1850
$Comp
L Device:Polyfuse F701
U 1 1 5E9B7C49
P 2100 1050
F 0 "F701" V 1875 1050 50  0000 C CNN
F 1 "0.5A" V 1966 1050 50  0000 C CNN
F 2 "" H 2150 850 50  0001 L CNN
F 3 "~" H 2100 1050 50  0001 C CNN
	1    2100 1050
	0    1    1    0   
$EndComp
$Comp
L Device:Polyfuse F703
U 1 1 5E9B7F27
P 2150 2000
F 0 "F703" V 2250 1900 50  0000 L CNN
F 1 "0.5A" V 2350 1900 50  0000 L CNN
F 2 "" H 2200 1800 50  0001 L CNN
F 3 "~" H 2150 2000 50  0001 C CNN
	1    2150 2000
	0    1    1    0   
$EndComp
Text HLabel 1800 1850 0    50   Input ~ 0
BATT1_IN
Text HLabel 1800 2000 0    50   Input ~ 0
BATT2_IN
$Comp
L Device:R R710
U 1 1 5EA21E50
P 3500 2200
F 0 "R710" V 3293 2200 50  0000 C CNN
F 1 "100k" V 3384 2200 50  0000 C CNN
F 2 "" V 3430 2200 50  0001 C CNN
F 3 "~" H 3500 2200 50  0001 C CNN
	1    3500 2200
	0    1    1    0   
$EndComp
$Comp
L power:GND #PWR0109
U 1 1 5EA2254E
P 3700 2250
F 0 "#PWR0109" H 3700 2000 50  0001 C CNN
F 1 "GND" H 3705 2077 50  0000 C CNN
F 2 "" H 3700 2250 50  0001 C CNN
F 3 "" H 3700 2250 50  0001 C CNN
	1    3700 2250
	1    0    0    -1  
$EndComp
Wire Wire Line
	3650 2200 3700 2200
Wire Wire Line
	3700 2200 3700 2250
Wire Wire Line
	3350 2200 3250 2200
Wire Wire Line
	3250 2200 3250 2150
Connection ~ 3250 2200
$Comp
L power:VCC #PWR0111
U 1 1 5EA42C88
P 6800 950
F 0 "#PWR0111" H 6800 800 50  0001 C CNN
F 1 "VCC" H 6817 1123 50  0000 C CNN
F 2 "" H 6800 950 50  0001 C CNN
F 3 "" H 6800 950 50  0001 C CNN
	1    6800 950 
	1    0    0    -1  
$EndComp
Wire Wire Line
	6800 950  6800 1050
Wire Wire Line
	6800 1050 6950 1050
Wire Wire Line
	7300 1150 7300 1050
Wire Wire Line
	7150 1050 7300 1050
Connection ~ 7300 1050
Wire Wire Line
	7300 1050 7450 1050
Wire Wire Line
	7650 1050 7800 1050
Wire Wire Line
	7800 1050 7800 1150
Text HLabel 7200 1450 0    50   Input ~ 0
CHGPUMP_PWM
Wire Wire Line
	7200 1450 7300 1450
Wire Wire Line
	7300 1450 7300 1350
$Comp
L power:GND #PWR0112
U 1 1 5EA532AF
P 7800 1450
F 0 "#PWR0112" H 7800 1200 50  0001 C CNN
F 1 "GND" H 7805 1277 50  0000 C CNN
F 2 "" H 7800 1450 50  0001 C CNN
F 3 "" H 7800 1450 50  0001 C CNN
	1    7800 1450
	1    0    0    -1  
$EndComp
Wire Wire Line
	7800 1350 7800 1450
Connection ~ 7800 1050
Wire Wire Line
	8850 1350 8800 1350
Wire Wire Line
	8800 1350 8800 1050
Connection ~ 8800 1050
Wire Wire Line
	8800 1050 8850 1050
Wire Wire Line
	7800 1050 8200 1050
Text HLabel 8650 1550 0    50   Input ~ 0
PWR_EN
$Comp
L Device:C_Small C708
U 1 1 5E86139B
P 7300 1250
F 0 "C708" H 7050 1300 50  0000 L CNN
F 1 "10u" H 7100 1200 50  0000 L CNN
F 2 "" H 7300 1250 50  0001 C CNN
F 3 "~" H 7300 1250 50  0001 C CNN
	1    7300 1250
	1    0    0    -1  
$EndComp
$Comp
L Device:C_Small C709
U 1 1 5E862E27
P 7800 1250
F 0 "C709" H 7550 1300 50  0000 L CNN
F 1 "10u" H 7600 1200 50  0000 L CNN
F 2 "" H 7800 1250 50  0001 C CNN
F 3 "~" H 7800 1250 50  0001 C CNN
	1    7800 1250
	1    0    0    -1  
$EndComp
$Comp
L power:Earth_Protective #PWR0307
U 1 1 5E8C2FDC
P 9600 2750
F 0 "#PWR0307" H 9850 2500 50  0001 C CNN
F 1 "Earth_Protective" H 10050 2600 50  0001 C CNN
F 2 "" H 9600 2650 50  0001 C CNN
F 3 "~" H 9600 2650 50  0001 C CNN
	1    9600 2750
	1    0    0    -1  
$EndComp
$Comp
L power:GND #PWR0306
U 1 1 5E8C33F1
P 9350 2750
F 0 "#PWR0306" H 9350 2500 50  0001 C CNN
F 1 "GND" H 9355 2577 50  0000 C CNN
F 2 "" H 9350 2750 50  0001 C CNN
F 3 "" H 9350 2750 50  0001 C CNN
	1    9350 2750
	1    0    0    -1  
$EndComp
Wire Wire Line
	9350 2750 9350 2650
Wire Wire Line
	9350 2650 9600 2650
Wire Wire Line
	9600 2650 9600 2750
Text Notes 9850 3200 2    50   ~ 0
GND TIE TO WATER
Text Label 8300 1450 0    50   ~ 0
PWR_FETS
Wire Wire Line
	3500 1050 3700 1050
Connection ~ 3700 1050
$Comp
L Device:C_Small C705
U 1 1 5E905254
P 3950 1200
F 0 "C705" H 4042 1246 50  0000 L CNN
F 1 "100u" H 4042 1155 50  0000 L CNN
F 2 "" H 3950 1200 50  0001 C CNN
F 3 "~" H 3950 1200 50  0001 C CNN
	1    3950 1200
	1    0    0    -1  
$EndComp
$Comp
L Device:C_Small C706
U 1 1 5E905D70
P 4400 1200
F 0 "C706" H 4492 1246 50  0000 L CNN
F 1 "10u" H 4492 1155 50  0000 L CNN
F 2 "" H 4400 1200 50  0001 C CNN
F 3 "~" H 4400 1200 50  0001 C CNN
	1    4400 1200
	1    0    0    -1  
$EndComp
$Comp
L Device:C_Small C707
U 1 1 5E906149
P 4850 1200
F 0 "C707" H 4942 1246 50  0000 L CNN
F 1 "1u TANT" H 4942 1155 50  0000 L CNN
F 2 "" H 4850 1200 50  0001 C CNN
F 3 "~" H 4850 1200 50  0001 C CNN
	1    4850 1200
	1    0    0    -1  
$EndComp
Wire Wire Line
	3700 1050 3950 1050
Wire Wire Line
	4850 1050 4850 1100
$Comp
L power:GND #PWR0302
U 1 1 5E911C20
P 4850 1400
F 0 "#PWR0302" H 4850 1150 50  0001 C CNN
F 1 "GND" H 4855 1227 50  0000 C CNN
F 2 "" H 4850 1400 50  0001 C CNN
F 3 "" H 4850 1400 50  0001 C CNN
	1    4850 1400
	1    0    0    -1  
$EndComp
Wire Wire Line
	4850 1400 4850 1350
Wire Wire Line
	4400 1300 4400 1350
Connection ~ 4850 1350
Wire Wire Line
	4850 1350 4850 1300
Wire Wire Line
	3950 1300 3950 1350
Wire Wire Line
	3950 1100 3950 1050
Wire Wire Line
	4400 1100 4400 1050
$Comp
L Device:Q_NMOS_GDS Q704
U 1 1 5E9976AE
P 8500 2700
F 0 "Q704" V 8842 2700 50  0000 C CNN
F 1 "Q_NMOS_GDS" V 8751 2700 50  0000 C CNN
F 2 "" H 8700 2800 50  0001 C CNN
F 3 "~" H 8500 2700 50  0001 C CNN
	1    8500 2700
	1    0    0    -1  
$EndComp
$Comp
L Device:Q_NMOS_GDS Q703
U 1 1 5E9984AF
P 7300 2700
F 0 "Q703" V 7642 2700 50  0000 C CNN
F 1 "Q_NMOS_GDS" V 7551 2700 50  0000 C CNN
F 2 "" H 7500 2800 50  0001 C CNN
F 3 "~" H 7300 2700 50  0001 C CNN
	1    7300 2700
	1    0    0    -1  
$EndComp
$Comp
L power:GND #PWR0305
U 1 1 5E9A40BB
P 8600 2950
F 0 "#PWR0305" H 8600 2700 50  0001 C CNN
F 1 "GND" H 8605 2777 50  0000 C CNN
F 2 "" H 8600 2950 50  0001 C CNN
F 3 "" H 8600 2950 50  0001 C CNN
	1    8600 2950
	1    0    0    -1  
$EndComp
$Comp
L power:GND #PWR0303
U 1 1 5E9A4404
P 7400 2950
F 0 "#PWR0303" H 7400 2700 50  0001 C CNN
F 1 "GND" H 7405 2777 50  0000 C CNN
F 2 "" H 7400 2950 50  0001 C CNN
F 3 "" H 7400 2950 50  0001 C CNN
	1    7400 2950
	1    0    0    -1  
$EndComp
Wire Wire Line
	8600 2900 8600 2950
Wire Wire Line
	7400 2900 7400 2950
Text HLabel 8250 2700 0    50   Input ~ 0
GPS_EN
Text HLabel 7050 2700 0    50   Input ~ 0
SATCOM_EN
Wire Wire Line
	7050 2700 7100 2700
Wire Wire Line
	8250 2700 8300 2700
Text HLabel 8550 2450 0    50   Input ~ 0
GPS_GND
Text HLabel 7350 2450 0    50   Input ~ 0
SATCOM_GND
Wire Wire Line
	7350 2450 7400 2450
Wire Wire Line
	7400 2450 7400 2500
Wire Wire Line
	8550 2450 8600 2450
Wire Wire Line
	8600 2450 8600 2500
Text Notes 8300 3200 2    50   ~ 0
GPS POWER
Text Notes 7000 3200 2    50   ~ 0
SATCOM POWER
$Comp
L Connector:TestPoint TP302
U 1 1 5E8C9031
P 8200 1050
F 0 "TP302" H 8250 1200 50  0000 L CNN
F 1 "TestPoint" H 8258 1077 50  0001 L CNN
F 2 "" H 8400 1050 50  0001 C CNN
F 3 "~" H 8400 1050 50  0001 C CNN
	1    8200 1050
	1    0    0    -1  
$EndComp
Connection ~ 8200 1050
Wire Wire Line
	8200 1050 8800 1050
Wire Wire Line
	3250 2200 2850 2200
Text Label 2850 2200 0    50   ~ 0
PWR_FETS
Wire Notes Line
	6250 550  6250 6750
Connection ~ 3950 1050
Connection ~ 4400 1350
Connection ~ 4400 1050
Wire Wire Line
	4400 1350 4850 1350
Wire Wire Line
	4400 1050 4850 1050
Wire Wire Line
	3950 1050 4400 1050
Wire Wire Line
	3950 1350 4400 1350
$Comp
L shippy-pcb:DPST_Latching_Relay K701
U 1 1 5E9134CE
P 2250 3900
F 0 "K701" V 1483 3900 50  0000 C CNN
F 1 "EC2-3TNU" V 1574 3900 50  0000 C CNN
F 2 "" H 3750 3725 50  0001 C CNN
F 3 "" H 2250 3900 50  0001 C CNN
	1    2250 3900
	0    -1   1    0   
$EndComp
Text HLabel 1900 4000 0    50   Input ~ 0
BATT2_IN
Text HLabel 1900 3800 0    50   Input ~ 0
BATT1_IN
Text HLabel 4550 6100 0    50   Input ~ 0
BATT1_COIL
Text HLabel 4550 6200 0    50   Input ~ 0
BATT2_COIL
Text Notes 6200 2750 2    50   ~ 0
LOAD SWITCHING
Wire Wire Line
	1900 3800 1950 3800
Wire Wire Line
	1900 4000 1950 4000
$Comp
L power:GND #PWR0309
U 1 1 5EAB8885
P 2650 1200
F 0 "#PWR0309" H 2650 950 50  0001 C CNN
F 1 "GND" H 2655 1027 50  0000 C CNN
F 2 "" H 2650 1200 50  0001 C CNN
F 3 "" H 2650 1200 50  0001 C CNN
	1    2650 1200
	1    0    0    -1  
$EndComp
Wire Wire Line
	2650 1200 2650 1150
Wire Wire Line
	2650 1150 2700 1150
Wire Notes Line
	9000 2300 9000 3300
Text Notes 7100 4600 2    50   ~ 0
CURRENT SENSING
Wire Notes Line
	6350 4450 10500 4450
$Comp
L Device:Polyfuse F702
U 1 1 5E9B7759
P 2150 1850
F 0 "F702" V 1950 1750 50  0000 L CNN
F 1 "0.5A" V 2050 1750 50  0000 L CNN
F 2 "" H 2200 1650 50  0001 L CNN
F 3 "~" H 2150 1850 50  0001 C CNN
	1    2150 1850
	0    1    1    0   
$EndComp
Wire Notes Line
	7750 2300 7750 4450
$Comp
L Device:D_Schottky_Small D704
U 1 1 5ECF1167
P 7550 1050
F 0 "D704" H 7550 845 50  0000 C CNN
F 1 "??" H 7550 936 50  0000 C CNN
F 2 "" V 7550 1050 50  0001 C CNN
F 3 "~" V 7550 1050 50  0001 C CNN
	1    7550 1050
	-1   0    0    1   
$EndComp
$Comp
L Device:D_Schottky_Small D703
U 1 1 5ECF226D
P 7050 1050
F 0 "D703" H 7050 845 50  0000 C CNN
F 1 "??" H 7050 936 50  0000 C CNN
F 2 "" V 7050 1050 50  0001 C CNN
F 3 "~" V 7050 1050 50  0001 C CNN
	1    7050 1050
	-1   0    0    1   
$EndComp
$Comp
L Device:Q_NMOS_GDS Q702
U 1 1 5E931948
P 7200 3750
F 0 "Q702" V 7542 3750 50  0000 C CNN
F 1 "Q_NMOS_GDS" V 7451 3750 50  0000 C CNN
F 2 "" H 7400 3850 50  0001 C CNN
F 3 "~" H 7200 3750 50  0001 C CNN
	1    7200 3750
	1    0    0    -1  
$EndComp
$Comp
L power:GND #PWR0312
U 1 1 5E93194E
P 7300 4000
F 0 "#PWR0312" H 7300 3750 50  0001 C CNN
F 1 "GND" H 7305 3827 50  0000 C CNN
F 2 "" H 7300 4000 50  0001 C CNN
F 3 "" H 7300 4000 50  0001 C CNN
	1    7300 4000
	1    0    0    -1  
$EndComp
Wire Wire Line
	7300 3950 7300 4000
Text HLabel 6950 3750 0    50   Input ~ 0
XBEE_EN
Wire Wire Line
	6950 3750 7000 3750
Text HLabel 7250 3500 0    50   Input ~ 0
XBEE_GND
Wire Wire Line
	7250 3500 7300 3500
Wire Wire Line
	7300 3500 7300 3550
Text Notes 6900 4400 2    50   ~ 0
XBEE POWER
Text Notes 10400 2250 2    50   ~ 0
20uA TYP.
Text Notes 6200 2850 2    50   ~ 0
65 ohm COIL, 140mW, 4ms
Text Notes 6200 2550 2    50   ~ 0
U301, U302: 1mA MAX., 100uA TYP. (x2)
Text Notes 6200 2450 2    50   ~ 0
CONTROL SYSTEM POWER
$Comp
L Device:Polyfuse F704
U 1 1 5E9AB4CF
P 4900 3900
F 0 "F704" V 5000 3800 50  0000 L CNN
F 1 "1.0A" V 5100 3800 50  0000 L CNN
F 2 "" H 4950 3700 50  0001 L CNN
F 3 "~" H 4900 3900 50  0001 C CNN
	1    4900 3900
	0    1    1    0   
$EndComp
Wire Wire Line
	1800 2000 2000 2000
Wire Wire Line
	2000 1850 1800 1850
Wire Wire Line
	5050 3900 5100 3900
$Comp
L shippy-pcb:DPST_Latching_Relay K702
U 1 1 5ED1B8CE
P 4200 3900
F 0 "K702" V 3433 3900 50  0000 C CNN
F 1 "EC2-3TNU" V 3524 3900 50  0000 C CNN
F 2 "" H 5700 3725 50  0001 C CNN
F 3 "" H 4200 3900 50  0001 C CNN
	1    4200 3900
	0    -1   1    0   
$EndComp
Wire Wire Line
	1650 3000 1650 3050
$Comp
L power:VCC #PWR0311
U 1 1 5E951957
P 1650 3000
F 0 "#PWR0311" H 1650 2850 50  0001 C CNN
F 1 "VCC" H 1667 3173 50  0000 C CNN
F 2 "" H 1650 3000 50  0001 C CNN
F 3 "" H 1650 3000 50  0001 C CNN
	1    1650 3000
	1    0    0    -1  
$EndComp
$Comp
L Device:R R709
U 1 1 5E9301BE
P 1650 3200
F 0 "R709" H 1400 3300 50  0000 L CNN
F 1 "0" H 1500 3200 50  0000 L CNN
F 2 "" V 1580 3200 50  0001 C CNN
F 3 "~" H 1650 3200 50  0001 C CNN
	1    1650 3200
	1    0    0    -1  
$EndComp
Text Label 3350 3500 0    50   ~ 0
COIL_POWER
Wire Wire Line
	3900 3500 3350 3500
Text Label 3350 4650 0    50   ~ 0
COIL_POWER
Wire Wire Line
	3900 4650 3350 4650
$Comp
L Transistor_Array:ULN2003 U714
U 1 1 5EBA6D27
P 5050 6300
F 0 "U714" H 5050 6967 50  0000 C CNN
F 1 "ULN2003" H 5050 6876 50  0000 C CNN
F 2 "" H 5100 5750 50  0001 L CNN
F 3 "http://www.ti.com/lit/ds/symlink/uln2003a.pdf" H 5150 6100 50  0001 C CNN
	1    5050 6300
	1    0    0    -1  
$EndComp
$Comp
L power:VCC #PWR0719
U 1 1 5EBAB250
P 5500 5850
F 0 "#PWR0719" H 5500 5700 50  0001 C CNN
F 1 "VCC" H 5517 6023 50  0000 C CNN
F 2 "" H 5500 5850 50  0001 C CNN
F 3 "" H 5500 5850 50  0001 C CNN
	1    5500 5850
	1    0    0    -1  
$EndComp
Wire Wire Line
	5500 5850 5500 5900
Wire Wire Line
	5500 5900 5450 5900
$Comp
L power:GND #PWR0713
U 1 1 5EBB3C2E
P 5050 6950
F 0 "#PWR0713" H 5050 6700 50  0001 C CNN
F 1 "GND" H 5055 6777 50  0000 C CNN
F 2 "" H 5050 6950 50  0001 C CNN
F 3 "" H 5050 6950 50  0001 C CNN
	1    5050 6950
	1    0    0    -1  
$EndComp
Wire Wire Line
	5050 6900 5050 6950
Text Label 3050 3500 2    50   ~ 0
BATT1_COIL
Wire Wire Line
	3050 3500 2550 3500
Text Label 3050 4650 2    50   ~ 0
BATT2_COIL
Wire Wire Line
	3050 4650 2550 4650
Text Label 1300 4650 0    50   ~ 0
COIL_POWER
Text Label 1100 3500 0    50   ~ 0
COIL_POWER
Wire Wire Line
	1950 4650 1300 4650
Text Label 6000 6100 2    50   ~ 0
BATT1_COIL
Text Label 6000 6200 2    50   ~ 0
BATT2_COIL
Text Label 5000 3500 2    50   ~ 0
BATT_COIL
Text Label 5000 4650 2    50   ~ 0
SOLAR_COIL
Wire Wire Line
	5000 4650 4500 4650
Wire Wire Line
	5000 3500 4500 3500
Text Label 6000 6300 2    50   ~ 0
BATT_COIL
Text Label 6000 6400 2    50   ~ 0
SOLAR_COIL
Wire Wire Line
	6000 6100 5450 6100
Wire Wire Line
	6000 6200 5450 6200
Wire Wire Line
	6000 6300 5450 6300
Wire Wire Line
	6000 6400 5450 6400
Text HLabel 4550 6300 0    50   Input ~ 0
HIGHPWR_BATT_COIL
Text HLabel 4550 6400 0    50   Input ~ 0
HIGHPWR_SOLAR_COIL
Wire Wire Line
	4550 6100 4650 6100
Wire Wire Line
	4550 6200 4650 6200
Wire Wire Line
	4550 6300 4650 6300
Wire Wire Line
	4550 6400 4650 6400
Wire Wire Line
	1100 3500 1650 3500
Wire Wire Line
	1650 3350 1650 3500
Connection ~ 1650 3500
Wire Wire Line
	1650 3500 1950 3500
Wire Wire Line
	4500 3900 4750 3900
Text HLabel 4800 4300 2    50   Input ~ 0
SOLAR_DIRECT
$Comp
L power:GND #PWR0705
U 1 1 5EE71DC5
P 8500 4100
F 0 "#PWR0705" H 8500 3850 50  0001 C CNN
F 1 "GND" H 8505 3927 50  0000 C CNN
F 2 "" H 8500 4100 50  0001 C CNN
F 3 "" H 8500 4100 50  0001 C CNN
	1    8500 4100
	1    0    0    -1  
$EndComp
Wire Notes Line
	6250 2600 550  2600
Wire Notes Line
	6250 3300 10450 3300
$Comp
L shippy-pcb:Pololu_U1V11 U713
U 1 1 5EC47A33
P 3100 1100
F 0 "U713" H 2850 1350 50  0000 C CNN
F 1 "Pololu_U1V11" H 3100 950 50  0000 C CNN
F 2 "" H 3000 1150 50  0001 C CNN
F 3 "" H 3000 1150 50  0001 C CNN
F 4 " 2183-2561-ND" H 3100 800 50  0001 C CNN "DKPN"
F 5 "2561" H 2900 700 50  0001 C CNN "MPN"
F 6 "Pololu" H 2950 600 50  0001 C CNN "Manufacturer"
	1    3100 1100
	1    0    0    -1  
$EndComp
$Comp
L shippy-pcb:MCP1826-3302E U712
U 1 1 5EC52924
P 9050 3900
F 0 "U712" H 9050 4225 50  0000 C CNN
F 1 "MCP1826-3302E" H 9050 4134 50  0000 C CNN
F 2 "" H 8900 3900 50  0001 C CNN
F 3 "" H 8900 3900 50  0001 C CNN
	1    9050 3900
	1    0    0    -1  
$EndComp
Wire Wire Line
	8500 4100 8500 4000
Wire Wire Line
	8500 4000 8600 4000
Wire Wire Line
	1500 1050 1950 1050
Wire Wire Line
	3900 4400 3250 4400
Wire Wire Line
	3900 4000 3250 4000
Text Label 3250 4400 0    50   ~ 0
SOLAR_TOMEAS
Text Label 3250 4000 0    50   ~ 0
SOLAR_REGOUT
Text Label 8050 3900 0    50   ~ 0
SOLAR_TOREG
Text Label 10100 3900 2    50   ~ 0
SOLAR_REGOUT
Wire Wire Line
	10100 3900 9500 3900
Wire Wire Line
	8600 3900 8050 3900
NoConn ~ 9500 3800
NoConn ~ 3900 4200
Text Notes 10250 4300 2    50   ~ 0
TODO: REPLACE WITH  3-PIN REG
$Comp
L Device:SPARK_GAP E701
U 1 1 5ECF0651
P 9800 2650
F 0 "E701" H 9800 2840 50  0000 C CNN
F 1 "SPARK_GAP" H 9800 2749 50  0000 C CNN
F 2 "" H 9800 2580 50  0001 C CNN
F 3 "~" V 9800 2650 50  0001 C CNN
	1    9800 2650
	1    0    0    -1  
$EndComp
Connection ~ 9600 2650
$Comp
L power:VCC #PWR0721
U 1 1 5ECF9BD4
P 10150 2600
F 0 "#PWR0721" H 10150 2450 50  0001 C CNN
F 1 "VCC" H 10167 2773 50  0000 C CNN
F 2 "" H 10150 2600 50  0001 C CNN
F 3 "" H 10150 2600 50  0001 C CNN
	1    10150 2600
	1    0    0    -1  
$EndComp
Wire Wire Line
	10150 2600 10150 2650
Wire Wire Line
	10150 2650 10000 2650
Wire Wire Line
	2250 1050 2700 1050
Wire Wire Line
	3450 1850 3700 1850
Wire Wire Line
	2400 1850 2300 1850
Wire Wire Line
	2400 2000 2300 2000
Wire Wire Line
	2700 1850 2950 1850
Wire Wire Line
	2700 2000 2950 2000
$Comp
L shippy-pcb:ACS722LLCTR-05AB-T U715
U 1 1 5ECEA9D2
P 7250 5200
F 0 "U715" H 7000 5450 50  0000 C CNN
F 1 "ACS722LLCTR-05AB-T" H 7250 4950 50  0000 C CNN
F 2 "" H 7300 4900 50  0001 C CNN
F 3 "" H 7300 4900 50  0001 C CNN
	1    7250 5200
	1    0    0    -1  
$EndComp
$Comp
L power:GND #PWR0726
U 1 1 5ECEA9D8
P 7750 5650
F 0 "#PWR0726" H 7750 5400 50  0001 C CNN
F 1 "GND" H 7755 5477 50  0000 C CNN
F 2 "" H 7750 5650 50  0001 C CNN
F 3 "" H 7750 5650 50  0001 C CNN
	1    7750 5650
	1    0    0    -1  
$EndComp
Wire Wire Line
	7650 5350 7750 5350
Wire Wire Line
	7750 5350 7750 5550
Wire Wire Line
	7800 5150 7800 5050
Wire Wire Line
	6850 5150 6750 5150
Wire Wire Line
	6850 5250 6750 5250
Wire Wire Line
	6750 5250 6750 5150
Wire Wire Line
	6850 5350 6750 5350
Wire Wire Line
	6750 5350 6750 5550
Wire Wire Line
	6750 5550 7750 5550
Connection ~ 7750 5550
$Comp
L Device:C_Small C703
U 1 1 5ECEA9F1
P 7950 5400
F 0 "C703" H 8042 5446 50  0000 L CNN
F 1 "1n" H 8042 5355 50  0000 L CNN
F 2 "" H 7950 5400 50  0001 C CNN
F 3 "~" H 7950 5400 50  0001 C CNN
	1    7950 5400
	1    0    0    -1  
$EndComp
Wire Wire Line
	7950 5250 7950 5300
Wire Wire Line
	7950 5500 7950 5550
Wire Wire Line
	7750 5550 7750 5650
Text HLabel 8050 5250 2    50   Output ~ 0
CURR_VCC
$Comp
L power:VCC #PWR0722
U 1 1 5ECEA9CC
P 3700 900
F 0 "#PWR0722" H 3700 750 50  0001 C CNN
F 1 "VCC" H 3717 1073 50  0000 C CNN
F 2 "" H 3700 900 50  0001 C CNN
F 3 "" H 3700 900 50  0001 C CNN
	1    3700 900 
	1    0    0    -1  
$EndComp
Wire Wire Line
	3700 900  3700 1050
Wire Wire Line
	7800 5050 7650 5050
Wire Wire Line
	7800 5150 7650 5150
Wire Wire Line
	7750 5550 7950 5550
Wire Wire Line
	7950 5250 7650 5250
$Comp
L power:VCC #PWR0725
U 1 1 5ED4FF95
P 6750 4900
F 0 "#PWR0725" H 6750 4750 50  0001 C CNN
F 1 "VCC" H 6767 5073 50  0000 C CNN
F 2 "" H 6750 4900 50  0001 C CNN
F 3 "" H 6750 4900 50  0001 C CNN
	1    6750 4900
	1    0    0    -1  
$EndComp
Wire Wire Line
	6750 4900 6750 5050
Wire Wire Line
	6750 5050 6850 5050
Wire Wire Line
	6750 5150 6400 5150
Connection ~ 6750 5150
Wire Wire Line
	2550 3900 2900 3900
Text Label 2900 3900 2    50   ~ 0
BATT_IN
Text Label 6400 5150 0    50   ~ 0
BATT_IN
Wire Wire Line
	8050 5250 7950 5250
Connection ~ 7950 5250
Wire Wire Line
	7800 5050 8250 5050
Connection ~ 7800 5050
Wire Wire Line
	3450 3800 3900 3800
$Comp
L shippy-pcb:ACS722LLCTR-05AB-T U716
U 1 1 5EDED963
P 9000 6050
F 0 "U716" H 8750 6300 50  0000 C CNN
F 1 "ACS722LLCTR-05AB-T" H 9000 5800 50  0000 C CNN
F 2 "" H 9050 5750 50  0001 C CNN
F 3 "" H 9050 5750 50  0001 C CNN
	1    9000 6050
	1    0    0    -1  
$EndComp
$Comp
L power:GND #PWR0728
U 1 1 5EDED96D
P 9500 6500
F 0 "#PWR0728" H 9500 6250 50  0001 C CNN
F 1 "GND" H 9505 6327 50  0000 C CNN
F 2 "" H 9500 6500 50  0001 C CNN
F 3 "" H 9500 6500 50  0001 C CNN
	1    9500 6500
	1    0    0    -1  
$EndComp
Wire Wire Line
	9400 6200 9500 6200
Wire Wire Line
	9500 6200 9500 6400
Wire Wire Line
	9550 6000 9550 5900
Wire Wire Line
	8600 6000 8500 6000
Wire Wire Line
	8600 6100 8500 6100
Wire Wire Line
	8500 6100 8500 6000
Wire Wire Line
	8600 6200 8500 6200
Wire Wire Line
	8500 6200 8500 6400
Wire Wire Line
	8500 6400 9500 6400
Connection ~ 9500 6400
$Comp
L Device:C_Small C704
U 1 1 5EDED981
P 9700 6250
F 0 "C704" H 9792 6296 50  0000 L CNN
F 1 "1n" H 9792 6205 50  0000 L CNN
F 2 "" H 9700 6250 50  0001 C CNN
F 3 "~" H 9700 6250 50  0001 C CNN
	1    9700 6250
	1    0    0    -1  
$EndComp
Wire Wire Line
	9700 6100 9700 6150
Wire Wire Line
	9700 6350 9700 6400
Wire Wire Line
	9500 6400 9500 6500
Text HLabel 9800 6100 2    50   Output ~ 0
CURR_SOLAR
Wire Wire Line
	9550 5900 9400 5900
Wire Wire Line
	9550 6000 9400 6000
Wire Wire Line
	9500 6400 9700 6400
Wire Wire Line
	9700 6100 9400 6100
$Comp
L power:VCC #PWR0727
U 1 1 5EDED993
P 8500 5750
F 0 "#PWR0727" H 8500 5600 50  0001 C CNN
F 1 "VCC" H 8517 5923 50  0000 C CNN
F 2 "" H 8500 5750 50  0001 C CNN
F 3 "" H 8500 5750 50  0001 C CNN
	1    8500 5750
	1    0    0    -1  
$EndComp
Wire Wire Line
	8500 5750 8500 5900
Wire Wire Line
	8500 5900 8600 5900
Wire Wire Line
	9800 6100 9700 6100
Connection ~ 9700 6100
Connection ~ 9550 5900
Text Notes 5900 4050 2    50   ~ 0
(MOTORS, RUDDERS)
Text HLabel 5100 3900 2    50   Input ~ 0
HIGHPWR_RAIL
Wire Wire Line
	7900 6100 8500 6100
Connection ~ 8500 6100
Wire Wire Line
	9550 5900 10100 5900
Text Label 10100 5900 2    50   ~ 0
SOLAR_TOREG
Text Notes 1750 5100 0    50   ~ 0
K701 SELECTS BATT1 OR BATT2 FOR POWER RAIL\nK702 SELECTS BATT (FROM K701) OR SOLAR (DIRECT) FOR POWER RAIL
Text Label 7900 6100 0    50   ~ 0
SOLAR_TOMEAS
Wire Wire Line
	4500 4300 4800 4300
$Comp
L power:VCC #PWR0723
U 1 1 5EEBF5F2
P 6650 6050
F 0 "#PWR0723" H 6650 5900 50  0001 C CNN
F 1 "VCC" H 6667 6223 50  0000 C CNN
F 2 "" H 6650 6050 50  0001 C CNN
F 3 "" H 6650 6050 50  0001 C CNN
	1    6650 6050
	1    0    0    -1  
$EndComp
$Comp
L power:GND #PWR0724
U 1 1 5EEBFAC9
P 6650 6450
F 0 "#PWR0724" H 6650 6200 50  0001 C CNN
F 1 "GND" H 6655 6277 50  0000 C CNN
F 2 "" H 6650 6450 50  0001 C CNN
F 3 "" H 6650 6450 50  0001 C CNN
	1    6650 6450
	1    0    0    -1  
$EndComp
$Comp
L Device:C_Small C701
U 1 1 5EEC00C6
P 6650 6250
F 0 "C701" H 6742 6296 50  0000 L CNN
F 1 "0.1u" H 6742 6205 50  0000 L CNN
F 2 "" H 6650 6250 50  0001 C CNN
F 3 "~" H 6650 6250 50  0001 C CNN
	1    6650 6250
	1    0    0    -1  
$EndComp
$Comp
L Device:C_Small C702
U 1 1 5EEC08B0
P 7050 6250
F 0 "C702" H 7142 6296 50  0000 L CNN
F 1 "0.1u" H 7142 6205 50  0000 L CNN
F 2 "" H 7050 6250 50  0001 C CNN
F 3 "~" H 7050 6250 50  0001 C CNN
	1    7050 6250
	1    0    0    -1  
$EndComp
Wire Wire Line
	6650 6050 6650 6100
Wire Wire Line
	7050 6150 7050 6100
Wire Wire Line
	7050 6100 6650 6100
Connection ~ 6650 6100
Wire Wire Line
	6650 6100 6650 6150
Wire Wire Line
	6650 6350 6650 6400
Wire Wire Line
	7050 6350 7050 6400
Wire Wire Line
	7050 6400 6650 6400
Connection ~ 6650 6400
Wire Wire Line
	6650 6400 6650 6450
Text Notes 7250 6050 2    50   ~ 0
BYPASS CAPS
Wire Wire Line
	3700 1050 3700 1850
Wire Notes Line
	6550 5200 850  5200
Wire Notes Line
	3500 5200 3500 8000
Text Notes 8800 3450 2    50   ~ 0
SOLAR LINEAR REGULATOR
Text Notes 6200 5350 2    50   ~ 0
RELAY COIL BUFFERS (LOW SIDE)
Text HLabel 2500 700  0    50   Input ~ 0
PWRREG_SHTDWN
Wire Wire Line
	2500 700  2600 700 
Wire Wire Line
	2600 700  2600 950 
Wire Wire Line
	2600 950  2700 950 
Text Label 8250 5050 2    50   ~ 0
BATT_PWR
Text Label 1500 1050 0    50   ~ 0
BATT_PWR
Text Label 3450 3800 0    50   ~ 0
BATT_PWR
Wire Notes Line
	6250 2300 10450 2300
Text Notes 8800 2250 2    50   ~ 0
CHARGE PUMP AND DISTRIBUTION SWITCH FOR POWER MOSFETs
$EndSCHEMATC
