EESchema Schematic File Version 4
LIBS:shippy-pcb-cache
EELAYER 30 0
EELAYER END
$Descr A 11000 8500
encoding utf-8
Sheet 6 8
Title "Shippy O'Shippian"
Date "2020-05-11"
Rev "1.6"
Comp "Author: Timothy A. Zimmerman"
Comment1 ""
Comment2 ""
Comment3 ""
Comment4 ""
$EndDescr
Text Notes 3250 3750 0    50   ~ 0
9DOF (ACCEL, GYRO, MAG)
Text Notes 8200 2150 0    50   ~ 0
SATELLITE COMMS
Text Notes 3500 5300 0    50   ~ 0
EEPROM (256k x 3)
Text Notes 3750 2150 0    50   ~ 0
XBEE COMMS
Text Notes 8200 3750 0    50   ~ 0
GPS MODULE
Text Notes 8200 6700 0    50   ~ 0
TEMPERATURE SENSORS
$Comp
L shippy-pcb:SEN-13944 U608
U 1 1 5E86A594
P 3300 3050
F 0 "U608" H 3150 3200 50  0000 C CNN
F 1 "SEN-13944" H 3300 2900 50  0000 C CNN
F 2 "" H 3250 3000 50  0001 C CNN
F 3 "" H 3250 3000 50  0001 C CNN
	1    3300 3050
	1    0    0    -1  
$EndComp
$Comp
L power:VCC #PWR0709
U 1 1 5E86CBEC
P 2850 2950
F 0 "#PWR0709" H 2850 2800 50  0001 C CNN
F 1 "VCC" H 2867 3123 50  0000 C CNN
F 2 "" H 2850 2950 50  0001 C CNN
F 3 "" H 2850 2950 50  0001 C CNN
	1    2850 2950
	1    0    0    -1  
$EndComp
$Comp
L power:GND #PWR0710
U 1 1 5E86CF41
P 2850 3150
F 0 "#PWR0710" H 2850 2900 50  0001 C CNN
F 1 "GND" H 2855 2977 50  0000 C CNN
F 2 "" H 2850 3150 50  0001 C CNN
F 3 "" H 2850 3150 50  0001 C CNN
	1    2850 3150
	1    0    0    -1  
$EndComp
Wire Wire Line
	2950 3100 2850 3100
Wire Wire Line
	2850 3100 2850 3150
Wire Wire Line
	2950 3000 2850 3000
Wire Wire Line
	2850 3000 2850 2950
Wire Notes Line
	4300 500  4300 7950
$Comp
L shippy-pcb:24AA256 U602
U 1 1 5E87BCD4
P 1000 4500
F 0 "U602" H 900 4800 50  0000 C CNN
F 1 "24AA256" H 1000 4300 50  0000 C CNN
F 2 "" H 1000 4500 50  0001 C CNN
F 3 "" H 1000 4500 50  0001 C CNN
	1    1000 4500
	1    0    0    -1  
$EndComp
$Comp
L power:GND #PWR0701
U 1 1 5E87EC5C
P 650 4800
F 0 "#PWR0701" H 650 4550 50  0001 C CNN
F 1 "GND" H 655 4627 50  0000 C CNN
F 2 "" H 650 4800 50  0001 C CNN
F 3 "" H 650 4800 50  0001 C CNN
	1    650  4800
	1    0    0    -1  
$EndComp
$Comp
L power:VCC #PWR0702
U 1 1 5E87F564
P 1350 4100
F 0 "#PWR0702" H 1350 3950 50  0001 C CNN
F 1 "VCC" H 1367 4273 50  0000 C CNN
F 2 "" H 1350 4100 50  0001 C CNN
F 3 "" H 1350 4100 50  0001 C CNN
	1    1350 4100
	1    0    0    -1  
$EndComp
Wire Wire Line
	1300 4300 1350 4300
Wire Wire Line
	1350 4100 1350 4300
Wire Wire Line
	650  4800 650  4750
Wire Wire Line
	650  4600 700  4600
Wire Wire Line
	1300 4600 1350 4600
Wire Wire Line
	1350 4600 1350 4750
Wire Wire Line
	1350 4750 650  4750
Connection ~ 650  4750
Wire Wire Line
	650  4750 650  4600
Wire Wire Line
	650  4600 650  4500
Wire Wire Line
	650  4300 700  4300
Connection ~ 650  4600
Wire Wire Line
	700  4400 650  4400
Connection ~ 650  4400
Wire Wire Line
	650  4400 650  4300
Wire Wire Line
	700  4500 650  4500
Connection ~ 650  4500
Wire Wire Line
	650  4500 650  4400
$Comp
L shippy-pcb:24AA256 U606
U 1 1 5E88A731
P 2200 4500
F 0 "U606" H 2100 4800 50  0000 C CNN
F 1 "24AA256" H 2200 4300 50  0000 C CNN
F 2 "" H 2200 4500 50  0001 C CNN
F 3 "" H 2200 4500 50  0001 C CNN
	1    2200 4500
	1    0    0    -1  
$EndComp
$Comp
L power:GND #PWR0707
U 1 1 5E88A737
P 1850 4800
F 0 "#PWR0707" H 1850 4550 50  0001 C CNN
F 1 "GND" H 1855 4627 50  0000 C CNN
F 2 "" H 1850 4800 50  0001 C CNN
F 3 "" H 1850 4800 50  0001 C CNN
	1    1850 4800
	1    0    0    -1  
$EndComp
$Comp
L power:VCC #PWR0708
U 1 1 5E88A73D
P 2550 4100
F 0 "#PWR0708" H 2550 3950 50  0001 C CNN
F 1 "VCC" H 2567 4273 50  0000 C CNN
F 2 "" H 2550 4100 50  0001 C CNN
F 3 "" H 2550 4100 50  0001 C CNN
	1    2550 4100
	1    0    0    -1  
$EndComp
Wire Wire Line
	2500 4300 2550 4300
Wire Wire Line
	2550 4100 2550 4150
Wire Wire Line
	1850 4800 1850 4750
Wire Wire Line
	1850 4600 1900 4600
Wire Wire Line
	2500 4600 2550 4600
Wire Wire Line
	2550 4600 2550 4750
Wire Wire Line
	2550 4750 1850 4750
Connection ~ 1850 4750
Wire Wire Line
	1850 4750 1850 4600
Wire Wire Line
	1850 4600 1850 4500
Connection ~ 1850 4600
Wire Wire Line
	1900 4400 1850 4400
Wire Wire Line
	1900 4500 1850 4500
Connection ~ 1850 4500
Wire Wire Line
	1850 4500 1850 4400
$Comp
L shippy-pcb:24AA256 U609
U 1 1 5E88B769
P 3400 4500
F 0 "U609" H 3300 4800 50  0000 C CNN
F 1 "24AA256" H 3400 4300 50  0000 C CNN
F 2 "" H 3400 4500 50  0001 C CNN
F 3 "" H 3400 4500 50  0001 C CNN
	1    3400 4500
	1    0    0    -1  
$EndComp
$Comp
L power:GND #PWR0711
U 1 1 5E88B76F
P 3050 4800
F 0 "#PWR0711" H 3050 4550 50  0001 C CNN
F 1 "GND" H 3055 4627 50  0000 C CNN
F 2 "" H 3050 4800 50  0001 C CNN
F 3 "" H 3050 4800 50  0001 C CNN
	1    3050 4800
	1    0    0    -1  
$EndComp
$Comp
L power:VCC #PWR0714
U 1 1 5E88B775
P 3750 4100
F 0 "#PWR0714" H 3750 3950 50  0001 C CNN
F 1 "VCC" H 3767 4273 50  0000 C CNN
F 2 "" H 3750 4100 50  0001 C CNN
F 3 "" H 3750 4100 50  0001 C CNN
	1    3750 4100
	1    0    0    -1  
$EndComp
Wire Wire Line
	3700 4300 3750 4300
Wire Wire Line
	3750 4100 3750 4150
Wire Wire Line
	3050 4800 3050 4750
Wire Wire Line
	3050 4600 3100 4600
Wire Wire Line
	3700 4600 3750 4600
Wire Wire Line
	3750 4600 3750 4750
Wire Wire Line
	3750 4750 3050 4750
Connection ~ 3050 4750
Wire Wire Line
	3050 4750 3050 4600
Wire Wire Line
	3050 4600 3050 4500
Wire Wire Line
	3050 4300 3100 4300
Connection ~ 3050 4600
Wire Wire Line
	3100 4500 3050 4500
Connection ~ 3050 4500
Wire Wire Line
	1900 4300 1850 4300
Wire Wire Line
	1850 4300 1850 4150
Wire Wire Line
	1850 4150 2550 4150
Connection ~ 2550 4150
Wire Wire Line
	2550 4150 2550 4300
Wire Wire Line
	3050 4300 3050 4500
Wire Wire Line
	3100 4400 3000 4400
Wire Wire Line
	3000 4400 3000 4150
Wire Wire Line
	3000 4150 3750 4150
Connection ~ 3750 4150
Wire Wire Line
	3750 4150 3750 4300
Wire Notes Line
	4300 5350 550  5350
Wire Notes Line
	2400 2200 2400 3800
Text Notes 1800 3750 0    50   ~ 0
TILT SENSORS
$Comp
L shippy-pcb:TILT_SENSOR U603
U 1 1 5E8A1650
P 1850 2800
F 0 "U603" H 2028 2805 50  0000 L CNN
F 1 "TILT_SENSOR" H 1850 2650 50  0001 C CNN
F 2 "" H 1750 2800 50  0001 C CNN
F 3 "" H 1750 2800 50  0001 C CNN
	1    1850 2800
	1    0    0    -1  
$EndComp
$Comp
L shippy-pcb:TILT_SENSOR U604
U 1 1 5E8A1B1E
P 1850 3050
F 0 "U604" H 2028 3055 50  0000 L CNN
F 1 "TILT_SENSOR" H 1850 2900 50  0001 C CNN
F 2 "" H 1750 3050 50  0001 C CNN
F 3 "" H 1750 3050 50  0001 C CNN
	1    1850 3050
	1    0    0    -1  
$EndComp
$Comp
L shippy-pcb:TILT_SENSOR U605
U 1 1 5E8A1DBA
P 1850 3300
F 0 "U605" H 2028 3305 50  0000 L CNN
F 1 "TILT_SENSOR" H 1850 3150 50  0001 C CNN
F 2 "" H 1750 3300 50  0001 C CNN
F 3 "" H 1750 3300 50  0001 C CNN
	1    1850 3300
	1    0    0    -1  
$EndComp
$Comp
L power:VCC #PWR0703
U 1 1 5E8A23C7
P 1450 2400
F 0 "#PWR0703" H 1450 2250 50  0001 C CNN
F 1 "VCC" H 1300 2450 50  0000 C CNN
F 2 "" H 1450 2400 50  0001 C CNN
F 3 "" H 1450 2400 50  0001 C CNN
	1    1450 2400
	1    0    0    -1  
$EndComp
Wire Wire Line
	1550 2750 1450 2750
Wire Wire Line
	1550 3000 1450 3000
Wire Wire Line
	1450 3000 1450 2750
Connection ~ 1450 2750
Wire Wire Line
	1550 3350 1400 3350
Wire Wire Line
	1400 3350 1400 3100
$Comp
L Device:R_PHOTO R610
U 1 1 5E8E8B19
P 9300 4650
F 0 "R610" H 9370 4696 50  0000 L CNN
F 1 "R_PHOTO" H 9370 4605 50  0000 L CNN
F 2 "" V 9350 4400 50  0001 L CNN
F 3 "~" H 9300 4600 50  0001 C CNN
	1    9300 4650
	1    0    0    -1  
$EndComp
$Comp
L shippy-pcb:ROCKBLOCK_9603 U611
U 1 1 5E8FDE9B
P 9150 1350
F 0 "U611" H 8900 1650 50  0000 C CNN
F 1 "ROCKBLOCK_9603" H 9150 950 50  0000 C CNN
F 2 "" H 8950 1300 50  0001 C CNN
F 3 "" H 8950 1300 50  0001 C CNN
	1    9150 1350
	1    0    0    -1  
$EndComp
NoConn ~ 8700 1150
NoConn ~ 8700 1250
NoConn ~ 8700 1350
NoConn ~ 8700 1450
NoConn ~ 8700 1550
NoConn ~ 8700 1650
Wire Wire Line
	9650 1450 9550 1450
Wire Wire Line
	9650 1150 9550 1150
Wire Wire Line
	9550 1250 9650 1250
Wire Wire Line
	9550 1350 9650 1350
Text HLabel 9650 1250 2    50   Input ~ 0
SATCOM_RX
Text HLabel 9650 1350 2    50   Input ~ 0
SATCOM_TX
Text Notes 8200 3900 0    50   ~ 0
SUNLIGHT SENSOR
Wire Notes Line
	8150 500  8150 6750
$Comp
L shippy-pcb:FGPMMOPA6H U612
U 1 1 5E937B4C
P 9350 3000
F 0 "U612" H 9150 3500 50  0000 C CNN
F 1 "FGPMMOPA6H" H 9350 2700 50  0000 C CNN
F 2 "" H 9350 3000 50  0001 C CNN
F 3 "" H 9350 3000 50  0001 C CNN
	1    9350 3000
	1    0    0    -1  
$EndComp
$Comp
L power:VCC #PWR0716
U 1 1 5E93E510
P 8600 2550
F 0 "#PWR0716" H 8600 2400 50  0001 C CNN
F 1 "VCC" H 8617 2723 50  0000 C CNN
F 2 "" H 8600 2550 50  0001 C CNN
F 3 "" H 8600 2550 50  0001 C CNN
	1    8600 2550
	1    0    0    -1  
$EndComp
Wire Wire Line
	8950 2600 8600 2600
Wire Wire Line
	8600 2600 8600 2550
Wire Wire Line
	8850 2900 8950 2900
Wire Wire Line
	8850 2900 8850 3000
Wire Wire Line
	8950 3000 8850 3000
Connection ~ 8850 3000
Wire Wire Line
	8850 3000 8850 3100
Wire Wire Line
	8950 3100 8850 3100
Connection ~ 8850 3100
Wire Wire Line
	8850 3100 8850 3200
Wire Wire Line
	8950 3200 8850 3200
Connection ~ 8850 3200
$Comp
L Device:R_Small R608
U 1 1 5E94B2AE
P 8800 2700
F 0 "R608" V 8900 2700 50  0000 C CNN
F 1 "47k" V 8800 2700 50  0000 C CNN
F 2 "" H 8800 2700 50  0001 C CNN
F 3 "~" H 8800 2700 50  0001 C CNN
	1    8800 2700
	0    1    1    0   
$EndComp
Wire Wire Line
	8600 2600 8600 2700
Wire Wire Line
	8600 2700 8700 2700
Connection ~ 8600 2600
Wire Wire Line
	8900 2700 8950 2700
NoConn ~ 8950 2800
NoConn ~ 9750 2900
NoConn ~ 9750 3000
NoConn ~ 9750 3100
NoConn ~ 9750 3200
Wire Wire Line
	9750 2600 9900 2600
Wire Wire Line
	9750 2700 9900 2700
Text HLabel 9900 2600 2    50   Input ~ 0
GPS_TX
Text HLabel 9900 2700 2    50   Input ~ 0
GPS_RX
Wire Wire Line
	3600 3000 3650 3000
Wire Wire Line
	3600 3100 3650 3100
Text HLabel 3650 3000 2    50   Input ~ 0
I2C1_SDA
Text HLabel 3650 3100 2    50   Input ~ 0
I2C1_SCL
Text HLabel 1350 4500 2    50   Input ~ 0
I2C1_SDA
Text HLabel 2550 4500 2    50   Input ~ 0
I2C1_SDA
Text HLabel 3750 4500 2    50   Input ~ 0
I2C1_SDA
Text HLabel 3750 4400 2    50   Input ~ 0
I2C1_SCL
Text HLabel 2550 4400 2    50   Input ~ 0
I2C1_SCL
Text HLabel 1350 4400 2    50   Input ~ 0
I2C1_SCL
Wire Wire Line
	1300 4400 1350 4400
Wire Wire Line
	1350 4500 1300 4500
Wire Wire Line
	2500 4400 2550 4400
Wire Wire Line
	2550 4500 2500 4500
Wire Wire Line
	3700 4400 3750 4400
Wire Wire Line
	3750 4500 3700 4500
Text HLabel 8900 3400 2    50   Input ~ 0
GPS_PWR
Wire Wire Line
	8900 3400 8850 3400
Wire Wire Line
	8850 3200 8850 3400
Text HLabel 9650 1450 2    50   Input ~ 0
SATCOM_PWR
Wire Notes Line
	8150 5150 10500 5150
Text Notes 9800 5100 0    50   ~ 0
RES: ~~1k to ~~10k
$Comp
L Device:R_Small R612
U 1 1 5E913F0A
P 9300 4300
F 0 "R612" V 9200 4300 50  0000 C CNN
F 1 "??" V 9400 4300 50  0000 C CNN
F 2 "" H 9300 4300 50  0001 C CNN
F 3 "~" H 9300 4300 50  0001 C CNN
	1    9300 4300
	1    0    0    -1  
$EndComp
Wire Wire Line
	9300 4100 9300 4200
Wire Wire Line
	9300 4400 9300 4450
Wire Wire Line
	9300 4800 9300 4850
Wire Wire Line
	9300 4450 9100 4450
Connection ~ 9300 4450
Wire Wire Line
	9300 4450 9300 4500
Text HLabel 9100 4450 0    50   Input ~ 0
SUNLIGHT_AN
Wire Notes Line
	550  3800 10500 3800
$Comp
L shippy-pcb:XBee-PRO-S2C U607
U 1 1 5E8CC9ED
P 2650 1400
F 0 "U607" H 2150 2100 50  0000 C CNN
F 1 "XBee-PRO-S2C" H 2250 800 50  0000 C CNN
F 2 "" H 2100 1600 50  0001 C CNN
F 3 "" H 2100 1600 50  0001 C CNN
	1    2650 1400
	1    0    0    -1  
$EndComp
Text HLabel 1750 1900 0    50   Input ~ 0
XBEE_PWR
Wire Wire Line
	1750 1900 1850 1900
Text HLabel 1750 1100 0    50   Input ~ 0
SATCOM_RX
Text HLabel 1750 1200 0    50   Input ~ 0
SATCOM_TX
Wire Wire Line
	1750 1100 1850 1100
Wire Wire Line
	1750 1200 1850 1200
NoConn ~ 1850 1300
NoConn ~ 1850 1400
NoConn ~ 1850 1500
NoConn ~ 1850 1600
NoConn ~ 1850 1700
NoConn ~ 1850 1800
NoConn ~ 3400 1900
NoConn ~ 3400 1800
NoConn ~ 3400 1700
NoConn ~ 3400 1500
NoConn ~ 3400 1400
NoConn ~ 3400 1300
NoConn ~ 3400 1200
NoConn ~ 3400 1100
NoConn ~ 3400 1000
NoConn ~ 3400 1600
$Comp
L Interface_Expansion:MCP23017_SO U610
U 1 1 5E93BE42
P 6050 5300
F 0 "U610" H 5650 6250 50  0000 C CNN
F 1 "MCP23017_SO" H 5700 4350 50  0000 C CNN
F 2 "Package_SO:SOIC-28W_7.5x17.9mm_P1.27mm" H 6250 4300 50  0001 L CNN
F 3 "http://ww1.microchip.com/downloads/en/DeviceDoc/20001952C.pdf" H 6250 4200 50  0001 L CNN
	1    6050 5300
	1    0    0    -1  
$EndComp
$Comp
L power:GND #PWR0718
U 1 1 5E93F29B
P 6050 6500
F 0 "#PWR0718" H 6050 6250 50  0001 C CNN
F 1 "GND" H 6055 6327 50  0000 C CNN
F 2 "" H 6050 6500 50  0001 C CNN
F 3 "" H 6050 6500 50  0001 C CNN
	1    6050 6500
	1    0    0    -1  
$EndComp
Wire Wire Line
	6050 6400 6050 6450
$Comp
L power:VCC #PWR0717
U 1 1 5E94320E
P 6050 4150
F 0 "#PWR0717" H 6050 4000 50  0001 C CNN
F 1 "VCC" H 6067 4323 50  0000 C CNN
F 2 "" H 6050 4150 50  0001 C CNN
F 3 "" H 6050 4150 50  0001 C CNN
	1    6050 4150
	1    0    0    -1  
$EndComp
Wire Wire Line
	6050 4150 6050 4200
Text HLabel 5250 4500 0    50   Input ~ 0
I2C1_SDA
Text HLabel 5250 4600 0    50   Input ~ 0
I2C1_SCL
Wire Wire Line
	5250 4500 5350 4500
Wire Wire Line
	5250 4600 5350 4600
Wire Wire Line
	5350 5900 5250 5900
Wire Wire Line
	5250 5900 5250 6000
Wire Wire Line
	5250 6450 6050 6450
Connection ~ 6050 6450
Wire Wire Line
	6050 6450 6050 6500
Wire Wire Line
	5350 6000 5250 6000
Connection ~ 5250 6000
Wire Wire Line
	5250 6000 5250 6100
Wire Wire Line
	5350 6100 5250 6100
Connection ~ 5250 6100
Wire Wire Line
	5250 6100 5250 6450
Text HLabel 5200 5100 0    50   Input ~ 0
GPIO_INTB
Wire Wire Line
	5200 5100 5350 5100
Text Label 650  2850 0    50   ~ 0
TILT_USD
Text Label 650  3100 0    50   ~ 0
TILT_45
Text HLabel 6800 5400 2    50   Input ~ 0
SOLAR_TIE_EN
Text Label 7400 4500 2    50   ~ 0
TILT_USD
Text Label 7400 4600 2    50   ~ 0
TILT_45
Text HLabel 6800 5500 2    50   Input ~ 0
GPS_EN
Text HLabel 6800 5600 2    50   Input ~ 0
SATCOM_EN
$Comp
L power:GND #PWR0720
U 1 1 5E99F10F
P 9300 4850
F 0 "#PWR0720" H 9300 4600 50  0001 C CNN
F 1 "GND" H 9305 4677 50  0000 C CNN
F 2 "" H 9300 4850 50  0001 C CNN
F 3 "" H 9300 4850 50  0001 C CNN
	1    9300 4850
	1    0    0    -1  
$EndComp
Text Label 7400 4700 2    50   ~ 0
SUNLIGHT_VDD
Text Label 8650 4100 0    50   ~ 0
SUNLIGHT_VDD
Wire Wire Line
	8650 4100 9300 4100
Wire Wire Line
	6750 5400 6800 5400
Wire Wire Line
	6800 5700 6750 5700
Wire Wire Line
	6750 5800 6800 5800
Wire Wire Line
	7400 4500 6750 4500
Wire Wire Line
	6750 4600 7400 4600
Text Notes 3400 2050 0    50   ~ 0
120mA TX, 31mA IDLE
Text HLabel 9650 1150 2    50   Input ~ 0
BATT_PWR
Wire Wire Line
	1750 1000 1850 1000
Text Notes 8200 2050 0    50   ~ 0
470mA TX
Text Notes 3850 3650 0    50   ~ 0
3.7mA TYP.
Wire Wire Line
	1450 3250 1550 3250
$Comp
L Device:R_Small R605
U 1 1 5E8AE389
P 1100 3250
F 0 "R605" V 1200 3250 50  0000 C CNN
F 1 "10k" V 1100 3250 50  0000 C CNN
F 2 "" H 1100 3250 50  0001 C CNN
F 3 "~" H 1100 3250 50  0001 C CNN
	1    1100 3250
	-1   0    0    1   
$EndComp
Wire Wire Line
	650  2850 1100 2850
Wire Wire Line
	1100 3150 1100 2850
Connection ~ 1100 2850
Wire Wire Line
	1100 2850 1550 2850
Wire Wire Line
	1450 3250 1450 3000
Connection ~ 1450 3000
Wire Wire Line
	1550 3100 1400 3100
Connection ~ 1400 3100
$Comp
L Device:R_Small R607
U 1 1 5EE2EAFD
P 1450 2550
F 0 "R607" V 1350 2550 50  0000 C CNN
F 1 "1k" V 1450 2550 50  0000 C CNN
F 2 "" H 1450 2550 50  0001 C CNN
F 3 "~" H 1450 2550 50  0001 C CNN
	1    1450 2550
	-1   0    0    1   
$EndComp
Wire Wire Line
	1450 2400 1450 2450
Wire Wire Line
	1450 2650 1450 2750
$Comp
L power:GND #PWR0704
U 1 1 5EE167AE
P 1100 3450
F 0 "#PWR0704" H 1100 3200 50  0001 C CNN
F 1 "GND" H 1105 3277 50  0000 C CNN
F 2 "" H 1100 3450 50  0001 C CNN
F 3 "" H 1100 3450 50  0001 C CNN
	1    1100 3450
	1    0    0    -1  
$EndComp
Wire Wire Line
	1200 3400 1200 3350
Wire Wire Line
	1100 3400 1100 3450
Wire Wire Line
	1100 3350 1100 3400
Connection ~ 1100 3400
Wire Wire Line
	1100 3400 1200 3400
Wire Wire Line
	1200 3100 1400 3100
Wire Wire Line
	650  3100 1200 3100
Connection ~ 1200 3100
Wire Wire Line
	1200 3150 1200 3100
$Comp
L Device:R_Small R606
U 1 1 5E8AFAC6
P 1200 3250
F 0 "R606" V 1100 3250 50  0000 C CNN
F 1 "10k" V 1200 3250 50  0000 C CNN
F 2 "" H 1200 3250 50  0001 C CNN
F 3 "~" H 1200 3250 50  0001 C CNN
	1    1200 3250
	-1   0    0    1   
$EndComp
Text Notes 1950 3650 0    50   ~ 0
0mA TYP.
Text Notes 8200 3650 0    50   ~ 0
25mA TYP.
Text Notes 2900 5200 0    50   ~ 0
1uA STBY, 400uA READ, 3mA WRITE\n
Text Notes 600  5300 0    50   ~ 0
768 1k Entries\n3072 256B Entries\n12,288 64B Entries
Text Notes 4400 3950 0    50   ~ 0
16 CH GPIO EXPANDER
Text Notes 4400 4050 0    50   ~ 0
1uA STBY, 1mA RX/TX
Text HLabel 5200 5400 0    50   Input ~ 0
GPIO_RESET
Wire Wire Line
	5200 5400 5350 5400
Text HLabel 6800 5800 2    50   Input ~ 0
HIGHPWR_BATT1_EN
Text HLabel 6800 5900 2    50   Input ~ 0
HIGHPWR_BATT2_EN
$Comp
L power:VCC #PWR0706
U 1 1 5E95BD71
P 1750 1000
F 0 "#PWR0706" H 1750 850 50  0001 C CNN
F 1 "VCC" H 1767 1173 50  0000 C CNN
F 2 "" H 1750 1000 50  0001 C CNN
F 3 "" H 1750 1000 50  0001 C CNN
	1    1750 1000
	1    0    0    -1  
$EndComp
NoConn ~ 5350 5200
Wire Notes Line
	4300 2200 550  2200
Wire Wire Line
	6750 4700 7400 4700
Text HLabel 6800 5700 2    50   Input ~ 0
XBEE_EN
Wire Wire Line
	6750 5900 6800 5900
$Comp
L Connector_Generic:Conn_01x02 J701
U 1 1 5EA352F3
P 9050 5800
F 0 "J701" H 9130 5746 50  0000 L CNN
F 1 "Conn_01x02" H 9130 5701 50  0001 L CNN
F 2 "" H 9050 5800 50  0001 C CNN
F 3 "~" H 9050 5800 50  0001 C CNN
	1    9050 5800
	1    0    0    -1  
$EndComp
$Comp
L Device:R_Small R609
U 1 1 5EA3605B
P 8800 5600
F 0 "R609" H 8950 5650 50  0000 C CNN
F 1 "??" H 8900 5550 50  0000 C CNN
F 2 "" H 8800 5600 50  0001 C CNN
F 3 "~" H 8800 5600 50  0001 C CNN
	1    8800 5600
	1    0    0    -1  
$EndComp
Wire Wire Line
	8800 5500 8800 5450
Wire Wire Line
	8800 5450 8350 5450
Text Label 8350 5450 0    50   ~ 0
THERM_EN
Wire Wire Line
	8800 5800 8850 5800
Wire Wire Line
	8850 5900 8800 5900
$Comp
L power:GND #PWR0712
U 1 1 5EA61A4A
P 8800 5950
F 0 "#PWR0712" H 8800 5700 50  0001 C CNN
F 1 "GND" H 8805 5777 50  0000 C CNN
F 2 "" H 8800 5950 50  0001 C CNN
F 3 "" H 8800 5950 50  0001 C CNN
	1    8800 5950
	1    0    0    -1  
$EndComp
Wire Wire Line
	8800 5900 8800 5950
Wire Wire Line
	8800 5700 8800 5800
$Comp
L Connector_Generic:Conn_01x02 J702
U 1 1 5EA7859A
P 10050 5800
F 0 "J702" H 10130 5746 50  0000 L CNN
F 1 "Conn_01x02" H 10130 5701 50  0001 L CNN
F 2 "" H 10050 5800 50  0001 C CNN
F 3 "~" H 10050 5800 50  0001 C CNN
	1    10050 5800
	1    0    0    -1  
$EndComp
$Comp
L Device:R_Small R611
U 1 1 5EA785A0
P 9800 5600
F 0 "R611" H 9950 5650 50  0000 C CNN
F 1 "??" H 9900 5550 50  0000 C CNN
F 2 "" H 9800 5600 50  0001 C CNN
F 3 "~" H 9800 5600 50  0001 C CNN
	1    9800 5600
	1    0    0    -1  
$EndComp
Wire Wire Line
	9800 5800 9850 5800
Wire Wire Line
	9850 5900 9800 5900
$Comp
L power:GND #PWR0715
U 1 1 5EA785A8
P 9800 5950
F 0 "#PWR0715" H 9800 5700 50  0001 C CNN
F 1 "GND" H 9805 5777 50  0000 C CNN
F 2 "" H 9800 5950 50  0001 C CNN
F 3 "" H 9800 5950 50  0001 C CNN
	1    9800 5950
	1    0    0    -1  
$EndComp
Wire Wire Line
	9800 5900 9800 5950
Wire Wire Line
	9800 5700 9800 5800
Wire Wire Line
	9800 5500 9800 5450
Wire Wire Line
	9800 5450 8800 5450
Connection ~ 8800 5450
Wire Wire Line
	9800 5800 9350 5800
Connection ~ 9800 5800
Wire Wire Line
	8800 5800 8350 5800
Connection ~ 8800 5800
Text Label 8350 5800 0    50   ~ 0
M1_THERM
Text Label 9350 5800 0    50   ~ 0
M2_THERM
Text Notes 8950 6350 0    50   ~ 0
10k NTC THERMISTORS
Wire Notes Line
	8150 2200 10500 2200
Text Notes 9300 2150 0    50   ~ 0
MUST BE POWERED FROM BATT!
Wire Wire Line
	6750 5600 6800 5600
Wire Wire Line
	6750 5500 6800 5500
$EndSCHEMATC
