EESchema Schematic File Version 4
LIBS:shippy-pcb-cache
EELAYER 30 0
EELAYER END
$Descr A 11000 8500
encoding utf-8
Sheet 1 8
Title "Shippy O'Shippian"
Date "2020-05-11"
Rev "1.6"
Comp "Author: Timothy A. Zimmerman"
Comment1 ""
Comment2 ""
Comment3 ""
Comment4 ""
$EndDescr
$Sheet
S 750  2700 800  700 
U 5E97AFFB
F0 "Solar1" 50
F1 "shippy-solar.sch" 50
F2 "SOLAR_RAIL" I R 1550 3300 50 
F3 "~CHARGE_ENABLE" I R 1550 2800 50 
F4 "STAT1" O R 1550 2900 50 
F5 "STAT2" O R 1550 3000 50 
F6 "~PG" O R 1550 3100 50 
F7 "BATT_OUT" I R 1550 3200 50 
$EndSheet
$Sheet
S 750  4450 800  700 
U 5E9911E4
F0 "Solar2" 50
F1 "shippy-solar.sch" 50
F2 "SOLAR_RAIL" I R 1550 4550 50 
F3 "~CHARGE_ENABLE" I R 1550 4750 50 
F4 "STAT1" O R 1550 4850 50 
F5 "STAT2" O R 1550 4950 50 
F6 "~PG" O R 1550 5050 50 
F7 "BATT_OUT" I R 1550 4650 50 
$EndSheet
$Sheet
S 900  3650 650  500 
U 5E992E95
F0 "solar-tie" 50
F1 "solar-current-tie.sch" 50
F2 "SOLAR_TIE_EN" I R 1550 3850 50 
F3 "SOLAR_RAIL_1" I R 1550 3750 50 
F4 "SOLAR_RAIL_2" I R 1550 4050 50 
F5 "SOLAR_RAIL_12" I R 1550 3950 50 
$EndSheet
$Sheet
S 8600 1000 1700 4200
U 5E926270
F0 "processor" 50
F1 "shippy-processor.sch" 50
F2 "UART1_TX" I L 8600 2900 50 
F3 "UART1_RX" I L 8600 2800 50 
F4 "UART2_TX" I L 8600 3000 50 
F5 "UART2_RX" I L 8600 3100 50 
F6 "I2C1_SCL" I L 8600 3200 50 
F7 "I2C1_SDA" I L 8600 3300 50 
F8 "M1_PWM" I L 8600 3750 50 
F9 "M2_PWM" I L 8600 3850 50 
F10 "CHGPUMP_PWM" I L 8600 2100 50 
F11 "PWR_FET_EN" I L 8600 2200 50 
$EndSheet
$Sheet
S 6350 2350 1600 2850
U 5E92AC33
F0 "peripherals" 50
F1 "shippy-peripherals.sch" 50
F2 "SATCOM_RX" I R 7950 2800 50 
F3 "SATCOM_TX" I R 7950 2900 50 
F4 "GPS_TX" I R 7950 3000 50 
F5 "GPS_RX" I R 7950 3100 50 
F6 "I2C1_SDA" I R 7950 3300 50 
F7 "I2C1_SCL" I R 7950 3200 50 
F8 "M2_PWM" I R 7950 3850 50 
F9 "M1_PWM" I R 7950 3750 50 
F10 "GPS_PWR" I L 6350 2450 50 
F11 "SATCOM_PWR" I L 6350 2550 50 
F12 "SUNLIGHT_PWR" I L 6350 2650 50 
F13 "SUNLIGHT_AN" I R 7950 4800 50 
F14 "GPIO_INTB" I R 7950 4300 50 
F15 "SOLAR_TIE_EN" I L 6350 3600 50 
F16 "GPS_EN" I L 6350 3700 50 
F17 "SATCOM_EN" I L 6350 3800 50 
F18 "HIGHPWR_RAIL" I L 6350 2850 50 
F19 "GPIO_RESET" I R 7950 4400 50 
F20 "XBEE_PWR" I L 6350 2750 50 
F21 "XBEE_EN" I L 6350 3900 50 
$EndSheet
Wire Wire Line
	7950 2800 8600 2800
Wire Wire Line
	8600 2900 7950 2900
Wire Wire Line
	7950 3000 8600 3000
Wire Wire Line
	8600 3100 7950 3100
Wire Wire Line
	8600 3200 7950 3200
Wire Wire Line
	7950 3300 8600 3300
Text Notes 7350 3350 1    50   ~ 0
COMMUNICATIONS
Text Notes 7350 3950 1    50   ~ 0
MOTORS
Text Notes 7350 4450 1    50   ~ 0
GPIO
Wire Wire Line
	7950 3750 8600 3750
Wire Wire Line
	8600 3850 7950 3850
Text Notes 7350 5000 1    50   ~ 0
ANALOG
Wire Wire Line
	1550 3850 2250 3850
Wire Wire Line
	1550 4050 1650 4050
Wire Wire Line
	1650 4550 1550 4550
Wire Wire Line
	1550 3300 1650 3300
Wire Wire Line
	1650 3300 1650 3750
Wire Wire Line
	1650 3750 1550 3750
Wire Wire Line
	1550 4650 2050 4650
Wire Wire Line
	2050 4650 2050 4050
Wire Wire Line
	2050 4050 2250 4050
Wire Wire Line
	1550 3200 2050 3200
Wire Wire Line
	2050 3200 2050 3750
Wire Wire Line
	2050 3750 2250 3750
Wire Wire Line
	1650 4050 1650 4550
Wire Wire Line
	1550 3950 2250 3950
$Sheet
S 2250 1000 1300 4200
U 5E97BDA3
F0 "Power" 50
F1 "shippy-power.sch" 50
F2 "SOLAR_TIE_FET" O L 2250 3850 50 
F3 "BATT1_IN" I L 2250 3750 50 
F4 "BATT2_IN" I L 2250 4050 50 
F5 "CHGPUMP_PWM" I R 3550 2100 50 
F6 "PWR_EN" I R 3550 2200 50 
F7 "SOLAR_TIE_EN" I R 3550 3600 50 
F8 "GPS_EN" I R 3550 3700 50 
F9 "SATCOM_EN" I R 3550 3800 50 
F10 "GPS_GND" I R 3550 2450 50 
F11 "SATCOM_GND" I R 3550 2550 50 
F12 "SUNLIGHT_GND" I R 3550 2650 50 
F13 "HIGHPWR_RAIL" I R 3550 2850 50 
F14 "XBEE_EN" I R 3550 3900 50 
F15 "XBEE_GND" I R 3550 2750 50 
F16 "HIGHPWR_SOLAR_COIL" I R 3550 3350 50 
F17 "SOLAR_DIRECT" I L 2250 3950 50 
F18 "BATT1_COIL" I R 3550 3050 50 
F19 "BATT2_COIL" I R 3550 3150 50 
F20 "CURR_VCC" I R 3550 1800 50 
F21 "CURR_SOLAR" I R 3550 1900 50 
F22 "PWRREG_SHTDWN" I R 3550 1700 50 
F23 "HIGHPWR_BATT_COIL" I R 3550 3250 50 
$EndSheet
$Sheet
S 4100 4300 1700 2050
U 5EB2B389
F0 "propulsion" 50
F1 "shippy-propulsion.sch" 50
$EndSheet
Wire Wire Line
	3550 2100 8600 2100
Wire Wire Line
	8600 2200 3550 2200
Wire Wire Line
	3550 2450 6350 2450
Wire Wire Line
	6350 2550 3550 2550
Wire Wire Line
	3550 2650 6350 2650
Wire Wire Line
	6350 2750 3550 2750
Wire Wire Line
	3550 2850 6350 2850
Wire Wire Line
	3550 3600 6350 3600
Wire Wire Line
	6350 3700 3550 3700
Wire Wire Line
	3550 3800 6350 3800
Wire Wire Line
	6350 3900 3550 3900
$EndSCHEMATC
